multiplicadores/multiplicador_8_bits/simulation/qsim/multiplicador_8_bits.msim.vcd
$comment
	File created using the following command:
		vcd file multiplicador_8_bits.msim.vcd -direction
$end
$date
	Sat Oct 07 15:38:06 2023
$end
$version
	ModelSim Version 10.1d
$end
$timescale
	1ps
$end
$scope module multiplicador_8_bits_vlg_vec_tst $end
$var reg 4 ! ivA [3:0] $end
$var reg 4 " ivB [3:0] $end
$var wire 1 # P [7] $end
$var wire 1 $ P [6] $end
$var wire 1 % P [5] $end
$var wire 1 & P [4] $end
$var wire 1 ' P [3] $end
$var wire 1 ( P [2] $end
$var wire 1 ) P [1] $end
$var wire 1 * P [0] $end
$var wire 1 + sampler $end
$scope module i1 $end
$var wire 1 , gnd $end
$var wire 1 - vcc $end
$var wire 1 . unknown $end
$var tri1 1 / devclrn $end
$var tri1 1 0 devpor $end
$var tri1 1 1 devoe $end
$var wire 1 2 sum2|Add1~0_combout $end
$var wire 1 3 sum2|Add1~1_combout $end
$var wire 1 4 sum7|Add1~1_combout $end
$var wire 1 5 A0B~0_combout $end
$var wire 1 6 sum1|Add0~0_combout $end
$var wire 1 7 sum2|Add0~0_combout $end
$var wire 1 8 sum1|Add0~1_combout $end
$var wire 1 9 sum5|Add0~0_combout $end
$var wire 1 : sum5|Add0~1_combout $end
$var wire 1 ; sum3|Add0~0_combout $end
$var wire 1 < sum6|Add0~2_combout $end
$var wire 1 = sum9|Add0~0_combout $end
$var wire 1 > sum6|Add1~0_combout $end
$var wire 1 ? A3B[1]~0_combout $end
$var wire 1 @ sum3|Add0~1_combout $end
$var wire 1 A sum4|Add1~0_combout $end
$var wire 1 B sum7|Add1~0_combout $end
$var wire 1 C sum9|Add0~1_combout $end
$var wire 1 D sum10|Add1~0_combout $end
$var wire 1 E sum10|Add1~1_combout $end
$var wire 1 F sum8|Add0~0_combout $end
$var wire 1 G sum8|Add1~0_combout $end
$var wire 1 H sum11|Add1~0_combout $end
$var wire 1 I sum11|Add1~1_combout $end
$var wire 1 J sum8|Add1~1_combout $end
$var wire 1 K sum12|Add1~0_combout $end
$var wire 1 L sum12|Add1~1_combout $end
$var wire 1 M A1B [3] $end
$var wire 1 N A1B [2] $end
$var wire 1 O A1B [1] $end
$var wire 1 P A1B [0] $end
$var wire 1 Q ivA~combout [3] $end
$var wire 1 R ivA~combout [2] $end
$var wire 1 S ivA~combout [1] $end
$var wire 1 T ivA~combout [0] $end
$var wire 1 U ivB~combout [3] $end
$var wire 1 V ivB~combout [2] $end
$var wire 1 W ivB~combout [1] $end
$var wire 1 X ivB~combout [0] $end
$upscope $end
$upscope $end
$enddefinitions $end
#0
$dumpvars
b0 !
b0 "
0*
0)
0(
0'
0&
0%
0$
0#
x+
0,
1-
x.
1/
10
11
02
03
04
05
06
07
08
09
0:
0;
0<
0=
0>
0?
0@
0A
0B
0C
0D
0E
0F
0G
0H
0I
0J
0K
0L
zP
zO
0N
zM
0T
0S
0R
0Q
0X
0W
0V
0U
$end
#1000
b1 "
1X
0+
#2000
b11 "
b10 "
0X
1W
1+
#3000
b11 "
1X
0+
#4000
b111 "
b101 "
b100 "
0X
0W
1V
1+
#5000
b101 "
1X
0+
#6000
b111 "
b110 "
0X
1W
1+
#7000
b111 "
1X
0+
#8000
b1111 "
b1011 "
b1001 "
b1000 "
0X
0W
0V
1U
1+
#9000
b1001 "
1X
0+
#10000
b1011 "
b1010 "
0X
1W
1+
#11000
b1011 "
1X
0+
#12000
b1111 "
b1101 "
b1100 "
0X
0W
1V
1+
#13000
b1101 "
1X
0+
#14000
b1111 "
b1110 "
0X
1W
1+
#15000
b1111 "
1X
0+
#16000
b1 !
b111 "
b11 "
b1 "
b0 "
0X
0W
0V
0U
1T
1+
12
#17000
b1 "
1X
0+
15
1*
#18000
b11 "
b10 "
0X
1W
1+
16
05
1)
0*
#19000
b11 "
1X
0+
15
1*
#20000
b111 "
b101 "
b100 "
0X
0W
1V
1+
06
05
19
0)
0*
1(
#21000
b101 "
1X
0+
15
1*
#22000
b111 "
b110 "
0X
1W
1+
16
05
1)
0*
#23000
b111 "
1X
0+
15
1*
#24000
b1111 "
b1011 "
b1001 "
b1000 "
0X
0W
0V
1U
1+
06
05
09
1=
0)
0*
0(
1'
#25000
b1001 "
1X
0+
15
1*
#26000
b1011 "
b1010 "
0X
1W
1+
16
05
1)
0*
#27000
b1011 "
1X
0+
15
1*
#28000
b1111 "
b1101 "
b1100 "
0X
0W
1V
1+
06
05
19
0)
0*
1(
#29000
b1101 "
1X
0+
15
1*
#30000
b1111 "
b1110 "
0X
1W
1+
16
05
1)
0*
#31000
b1111 "
1X
0+
15
1*
#32000
b11 !
b10 !
b111 "
b11 "
b1 "
b0 "
0X
0W
0V
0U
0T
1S
1+
06
05
09
0=
02
0)
0*
0(
0'
#33000
b1 "
1X
0+
16
1)
#34000
b11 "
b10 "
0X
1W
1+
17
06
19
0)
1(
#35000
b11 "
1X
0+
16
1)
#36000
b111 "
b101 "
b100 "
0X
0W
1V
1+
07
06
1N
1<
09
1=
0)
0(
1'
#37000
b101 "
1X
0+
16
1)
#38000
b111 "
b110 "
0X
1W
1+
17
06
19
0)
1(
#39000
b111 "
1X
0+
16
1)
#40000
b1111 "
b1011 "
b1001 "
b1000 "
0X
0W
0V
1U
1+
07
06
0N
0<
1D
09
0=
0)
1&
0(
0'
#41000
b1001 "
1X
0+
16
1)
#42000
b1011 "
b1010 "
0X
1W
1+
17
06
19
0)
1(
#43000
b1011 "
1X
0+
16
1)
#44000
b1111 "
b1101 "
b1100 "
0X
0W
1V
1+
07
06
1N
1<
09
1=
0)
0(
1'
#45000
b1101 "
1X
0+
16
1)
#46000
b1111 "
b1110 "
0X
1W
1+
17
06
19
0)
1(
#47000
b1111 "
1X
0+
16
1)
#48000
b11 !
b111 "
b11 "
b1 "
b0 "
0X
0W
0V
0U
1T
1+
07
06
0N
0<
0D
12
09
0=
0)
0&
0(
0'
#49000
b1 "
1X
0+
16
15
1)
1*
#50000
b11 "
b10 "
0X
1W
1+
17
05
19
0*
1(
#51000
b11 "
1X
0+
18
06
15
13
09
1<
0)
1*
1=
0(
1'
#52000
b111 "
b101 "
b100 "
0X
0W
1V
1+
08
07
05
03
1N
0<
19
1<
0=
0*
1(
1=
0'
1'
#53000
b101 "
1X
0+
16
15
1)
1*
#54000
b111 "
b110 "
0X
1W
1+
17
05
1:
09
0*
1>
0=
0(
1B
0'
1D
1&
#55000
b111 "
1X
0+
18
06
15
13
0:
19
0<
0)
1*
1(
#56000
b1111 "
b1011 "
b1001 "
b1000 "
0X
0W
0V
1U
1+
08
07
05
03
0N
1<
09
1E
0D
1=
0>
0<
1C
0=
1H
0*
0(
0&
1'
0B
0C
1=
1D
0'
1%
0E
1'
1&
0H
0%
#57000
b1001 "
1X
0+
16
15
1)
1*
#58000
b1011 "
b1010 "
0X
1W
1+
17
05
19
0*
1(
#59000
b1011 "
1X
0+
18
06
15
13
09
1<
0)
1*
1C
0=
0(
1E
0D
0'
1H
0&
1%
#60000
b1111 "
b1101 "
b1100 "
0X
0W
1V
1+
08
07
05
03
1N
0<
19
1<
0C
1=
0*
1(
1C
0=
0E
1D
1'
1E
0D
0H
0'
1&
1H
0&
0%
1%
#61000
b1101 "
1X
0+
16
15
1)
1*
#62000
b1111 "
b1110 "
0X
1W
1+
17
05
1:
09
0*
0C
1>
1=
0(
0E
1D
1B
1'
0H
1E
0D
1&
1H
0%
0&
1%
#63000
b1111 "
1X
0+
18
06
15
13
0:
19
0<
0)
1*
1(
#64000
b111 !
b101 !
b100 !
b111 "
b11 "
b1 "
b0 "
0X
0W
0V
0U
0T
0S
1R
1+
08
07
05
03
0N
1<
09
0E
1D
0=
0>
0<
1=
0H
0*
0(
1&
0'
0B
0=
1'
0%
0D
0'
0&
#65000
b1 "
1X
0+
17
19
1(
#66000
b11 "
b10 "
0X
1W
1+
1;
07
1<
09
1=
0(
1'
#67000
b11 "
1X
0+
17
19
1(
#68000
b111 "
b101 "
b100 "
0X
0W
1V
1+
0;
07
1B
0<
09
1D
0=
0(
1&
0'
#69000
b101 "
1X
0+
17
19
1(
#70000
b111 "
b110 "
0X
1W
1+
1;
07
1<
09
1=
0(
1'
#71000
b111 "
1X
0+
17
19
1(
#72000
b1111 "
b1011 "
b1001 "
b1000 "
0X
0W
0V
1U
1+
0;
07
0B
1H
0<
09
0D
1%
0=
0(
0&
0'
#73000
b1001 "
1X
0+
17
19
1(
#74000
b1011 "
b1010 "
0X
1W
1+
1;
07
1<
09
1=
0(
1'
#75000
b1011 "
1X
0+
17
19
1(
#76000
b1111 "
b1101 "
b1100 "
0X
0W
1V
1+
0;
07
1B
0<
09
1D
0=
0(
1&
0'
#77000
b1101 "
1X
0+
17
19
1(
#78000
b1111 "
b1110 "
0X
1W
1+
1;
07
1<
09
1=
0(
1'
#79000
b1111 "
1X
0+
17
19
1(
#80000
b101 !
b111 "
b11 "
b1 "
b0 "
0X
0W
0V
0U
1T
1+
0;
07
0B
0H
0<
09
0D
0%
0=
0(
0&
0'
#81000
b1 "
1X
0+
17
15
19
1*
1(
#82000
b11 "
b10 "
0X
1W
1+
1;
07
16
05
1<
09
1)
0*
1=
0(
1'
#83000
b11 "
1X
0+
17
15
19
1*
1(
#84000
b111 "
b101 "
b100 "
0X
0W
1V
1+
0;
07
06
05
1B
1:
09
0<
0:
19
1D
0=
0)
0*
0(
1(
1&
0'
#85000
b101 "
1X
0+
17
15
1:
09
1*
1=
0(
1'
#86000
b111 "
b110 "
0X
1W
1+
1;
07
16
05
1>
1<
0:
19
1)
0*
0B
14
0>
1(
0D
1G
1B
04
1H
1D
0G
0&
0H
1%
1&
0%
#87000
b111 "
1X
0+
17
15
1:
09
1*
1>
0=
0(
0B
14
0'
0D
1G
1H
0&
1%
#88000
b1111 "
b1011 "
b1001 "
b1000 "
0X
0W
0V
1U
1+
0;
07
06
05
1B
0:
19
04
1I
0H
1=
0>
0<
09
1D
1C
0=
0G
1K
0)
0*
1(
0%
1'
0B
0C
1=
1E
0D
0I
1H
0(
1&
0'
1$
0E
1I
0H
0K
1'
0&
1%
0I
1H
1K
0%
0$
0K
1%
1$
0$
#89000
b1001 "
1X
0+
17
15
19
1*
1(
#90000
b1011 "
b1010 "
0X
1W
1+
1;
07
16
05
1<
09
1)
0*
1C
0=
0(
1D
0'
1&
#91000
b1011 "
1X
0+
17
15
19
1*
1(
#92000
b1111 "
b1101 "
b1100 "
0X
0W
1V
1+
0;
07
06
05
1B
1:
09
0<
0:
19
1E
0D
0C
1=
0)
0*
0(
1I
0H
0E
1D
1(
0&
1'
1K
0I
1H
0%
1&
0K
1$
1%
0$
#93000
b1101 "
1X
0+
17
15
1:
09
1*
1C
0=
0(
1E
0D
0'
1I
0H
0&
1K
0%
1$
#94000
b1111 "
b1110 "
0X
1W
1+
1;
07
16
05
1>
1<
0:
19
1)
0*
0B
14
0>
1(
0E
1D
1G
1B
04
1E
0D
0G
1&
0&
#95000
b1111 "
1X
0+
17
15
1:
09
1*
0C
1>
1=
0(
0E
1D
0B
14
1'
0I
1H
0D
1G
1&
0K
1I
0H
1%
0&
1K
0$
0%
1$
#96000
b111 !
b110 !
b111 "
b11 "
b1 "
b0 "
0X
0W
0V
0U
0T
1S
1+
0;
07
06
05
1B
0:
19
04
0I
1H
0=
0>
0<
09
1D
1=
0G
0K
0)
0*
1(
1%
0'
0B
0=
0H
0(
1&
1'
0$
0D
0'
0%
0&
#97000
b1 "
1X
0+
17
16
19
1)
1(
#98000
b11 "
b10 "
0X
1W
1+
1;
06
1<
0)
1=
1'
#99000
b11 "
1X
0+
07
16
13
09
1A
0<
1)
1B
0=
0(
1D
0'
1&
#100000
b111 "
b101 "
b100 "
0X
0W
1V
1+
0;
06
03
0B
1N
1<
14
0A
0D
1=
1G
0)
1B
04
1H
0&
1'
1D
0G
1%
0H
1&
0%
#101000
b101 "
1X
0+
17
16
19
1)
1(
#102000
b111 "
b110 "
0X
1W
1+
1;
06
1>
0<
0)
0B
14
0=
0D
1G
0'
1H
0&
1%
#103000
b111 "
1X
0+
07
16
13
09
1A
0>
1<
1)
1=
0(
1'
#104000
b1111 "
b1011 "
b1001 "
b1000 "
0X
0W
0V
1U
1+
0;
06
03
1B
0N
0<
04
1I
0H
1D
0A
1E
0D
0=
0G
1K
0)
0%
1&
0B
0&
0'
1$
0E
1D
0I
1H
1&
0K
1%
0$
#105000
b1001 "
1X
0+
17
16
19
1)
1(
#106000
b1011 "
b1010 "
0X
1W
1+
1;
06
1<
0)
1=
1'
#107000
b1011 "
1X
0+
07
16
13
09
1A
0<
1)
1B
0=
0(
1E
0D
0'
1I
0H
0&
1K
0%
1$
#108000
b1111 "
b1101 "
b1100 "
0X
0W
1V
1+
0;
06
03
0B
1N
1<
14
0A
0E
1D
1=
1G
0)
1B
04
1&
1'
1E
0D
0G
0&
#109000
b1101 "
1X
0+
17
16
19
1)
1(
#110000
b1111 "
b1110 "
0X
1W
1+
1;
06
1>
0<
0)
0B
14
0=
0E
1D
1G
0'
1&
#111000
b1111 "
1X
0+
07
16
13
09
1A
0>
1<
1)
1=
0(
1'
#112000
b111 !
b111 "
b11 "
b1 "
b0 "
0X
0W
0V
0U
1T
1+
0;
06
03
1B
0N
0<
04
0I
1H
0D
0A
1D
0=
0G
0K
0)
1%
0&
0B
0H
1&
0'
0$
0D
0%
0&
#113000
b1 "
1X
0+
17
16
15
19
1)
1*
1(
#114000
b11 "
b10 "
0X
1W
1+
1;
05
1<
0*
1=
1'
#115000
b11 "
1X
0+
18
07
06
15
13
1A
0<
0)
1*
1B
0=
1D
0'
1&
#116000
b111 "
b101 "
b100 "
0X
0W
1V
1+
0;
08
05
03
0B
1N
1<
1:
09
14
0A
1>
0:
19
0D
1G
0*
0(
0>
1=
1H
1(
0&
1B
04
1'
1%
1D
0G
0H
1&
0%
#117000
b101 "
1X
0+
17
16
15
1:
09
1)
1*
1>
0=
0(
0B
14
0'
0D
1G
1H
0&
1%
#118000
b111 "
b110 "
0X
1W
1+
1;
05
0<
0*
1=
1'
#119000
b111 "
1X
0+
18
07
06
15
13
1A
1<
0)
1*
1B
0=
1D
0'
1&
#120000
b1111 "
b1011 "
b1001 "
b1000 "
0X
0W
0V
1U
1+
0;
08
05
03
0B
0N
0<
0:
19
1I
0H
1E
0D
1=
0A
0>
09
0E
1D
1K
1H
0*
1(
0%
0&
1'
04
0H
0(
1&
1$
1%
0G
0%
0I
1H
0K
1%
0$
#121000
b1001 "
1X
0+
17
16
15
19
1)
1*
1(
#122000
b1011 "
b1010 "
0X
1W
1+
1;
05
1<
0*
1C
0=
1E
0D
0'
1I
0H
0&
1K
0%
1$
#123000
b1011 "
1X
0+
18
07
06
15
13
1A
0<
0)
1*
1B
0C
1=
1'
#124000
b1111 "
b1101 "
b1100 "
0X
0W
1V
1+
0;
08
05
03
0B
1N
1<
1:
09
14
0A
1>
0:
19
0E
1D
1G
0*
0(
1C
0>
0=
1(
1&
1E
0D
1B
04
0'
1H
1D
0G
0&
0H
1%
1&
0%
#125000
b1101 "
1X
0+
17
16
15
1:
09
1)
1*
0C
1>
1=
0(
0D
0B
14
1'
0E
1D
1G
0&
1&
#126000
b1111 "
b1110 "
0X
1W
1+
1;
05
0<
0*
1C
0=
1E
0D
0'
1H
0&
1%
#127000
b1111 "
1X
0+
18
07
06
15
13
1A
1<
0)
1*
1B
0C
1=
1'
#128000
b1111 !
b1011 !
b1001 !
b1000 !
b111 "
b11 "
b1 "
b0 "
0X
0W
0V
0U
0T
0S
0R
1Q
1+
0;
08
05
03
0B
0N
0<
0:
19
0H
0E
1D
0=
02
0A
0>
09
0D
0I
1H
0*
1(
0%
1&
0'
04
0K
0(
0&
1%
0G
0$
0H
0%
#129000
b1 "
1X
0+
1;
1<
1=
1'
#130000
b11 "
b10 "
0X
1W
1+
0;
1?
1A
0<
1B
0=
1D
0'
1&
#131000
b11 "
1X
0+
1;
1<
1=
1'
#132000
b111 "
b101 "
b100 "
0X
0W
1V
1+
0;
0?
1G
0A
0<
1H
0B
0=
1%
0D
0'
0&
#133000
b101 "
1X
0+
1;
1<
1=
1'
#134000
b111 "
b110 "
0X
1W
1+
0;
1?
1A
0<
1B
0=
1D
0'
1&
#135000
b111 "
1X
0+
1;
1<
1=
1'
#136000
b1111 "
b1011 "
b1001 "
b1000 "
0X
0W
0V
1U
1+
0;
0?
0G
1K
0A
0<
0H
1$
0B
0=
0%
0D
0'
0&
#137000
b1001 "
1X
0+
1;
1<
1=
1'
#138000
b1011 "
b1010 "
0X
1W
1+
0;
1?
1A
0<
1B
0=
1D
0'
1&
#139000
b1011 "
1X
0+
1;
1<
1=
1'
#140000
b1111 "
b1101 "
b1100 "
0X
0W
1V
1+
0;
0?
1G
0A
0<
1H
0B
0=
1%
0D
0'
0&
#141000
b1101 "
1X
0+
1;
1<
1=
1'
#142000
b1111 "
b1110 "
0X
1W
1+
0;
1?
1A
0<
1B
0=
1D
0'
1&
#143000
b1111 "
1X
0+
1;
1<
1=
1'
#144000
b1001 !
b111 "
b11 "
b1 "
b0 "
0X
0W
0V
0U
1T
1+
0;
0?
0G
0K
12
0A
0<
0H
0$
0B
0=
0%
0D
0'
0&
#145000
b1 "
1X
0+
1;
15
1<
1*
1=
1'
#146000
b11 "
b10 "
0X
1W
1+
0;
16
05
1?
1A
0<
1)
0*
1B
0=
1D
0'
1&
#147000
b11 "
1X
0+
1;
15
1<
1*
1=
1'
#148000
b111 "
b101 "
b100 "
0X
0W
1V
1+
0;
06
05
0?
1G
19
0A
0<
1H
0)
0*
1(
0B
0=
1%
0D
0'
0&
#149000
b101 "
1X
0+
1;
15
1<
1*
1=
1'
#150000
b111 "
b110 "
0X
1W
1+
0;
16
05
1?
1A
0<
1)
0*
1B
0=
1D
0'
1&
#151000
b111 "
1X
0+
1;
15
1<
1*
1=
1'
#152000
b1111 "
b1011 "
b1001 "
b1000 "
0X
0W
0V
1U
1+
0;
06
05
0?
0G
09
1K
1C
0=
0A
0<
0H
1E
0D
0)
0*
0(
1$
0'
0B
0C
1=
1H
0%
0&
0E
1'
1%
0H
0%
#153000
b1001 "
1X
0+
1;
15
1<
1*
1C
0=
1D
0'
1&
#154000
b1011 "
b1010 "
0X
1W
1+
0;
16
05
1?
1A
0<
1)
0*
1B
0C
1=
1'
#155000
b1011 "
1X
0+
1;
15
1<
1*
1C
0=
1E
0D
0'
1H
0&
1%
#156000
b1111 "
b1101 "
b1100 "
0X
0W
1V
1+
0;
06
05
0?
1G
19
0A
0<
1I
0H
0)
0*
1(
0B
0C
1=
1L
0K
0%
0E
1'
1#
0$
0I
1H
0L
1K
1%
0#
1$
#157000
b1101 "
1X
0+
1;
15
1<
1*
1C
0=
1D
0'
1&
#158000
b1111 "
b1110 "
0X
1W
1+
0;
16
05
1?
1A
0<
1)
0*
1B
0C
1=
1'
#159000
b1111 "
1X
0+
1;
15
1<
1*
1C
0=
1E
0D
0'
1I
0H
0&
1L
0K
0%
1#
0$
#160000
b1011 !
b1010 !
b111 "
b11 "
b1 "
b0 "
0X
0W
0V
0U
0T
1S
1+
0;
06
05
0?
0G
09
0L
1K
0C
1=
02
0A
0<
0I
1H
0E
1D
0)
0*
0(
0#
1$
1'
0B
0=
0K
0H
1%
1&
0D
0'
0$
0%
0&
#161000
b1 "
1X
0+
1;
16
1<
1)
1=
1'
#162000
b11 "
b10 "
0X
1W
1+
0;
17
06
1?
1A
0<
19
0)
1B
0=
1(
1D
0'
1&
#163000
b11 "
1X
0+
1;
16
1<
1)
1=
1'
#164000
b111 "
b101 "
b100 "
0X
0W
1V
1+
0;
07
06
0?
1G
1N
0<
0A
1<
09
1H
0=
0)
0B
1=
0(
1%
0'
0D
1'
0&
#165000
b101 "
1X
0+
1;
16
1>
0<
1)
1B
0=
1D
0'
1&
#166000
b111 "
b110 "
0X
1W
1+
0;
17
06
1?
1A
0>
1<
19
0)
1=
1(
1'
#167000
b111 "
1X
0+
1;
16
1>
0<
1)
0B
14
0=
0D
1J
0G
0'
1K
0H
0&
1$
0%
#168000
b1111 "
b1011 "
b1001 "
b1000 "
0X
0W
0V
1U
1+
0;
07
06
0?
0J
1G
0N
1<
1L
0K
1D
0A
0>
0<
09
0L
1K
1H
1=
0)
1#
0$
1&
04
0=
0(
0#
1$
1%
1'
0G
0'
0H
0%
#169000
b1001 "
1X
0+
1;
16
1<
1)
1=
1'
#170000
b1011 "
b1010 "
0X
1W
1+
0;
17
06
1?
1A
0<
19
0)
1B
0=
1(
1E
0D
0'
1H
0&
1%
#171000
b1011 "
1X
0+
1;
16
1<
1)
1=
1'
#172000
b1111 "
b1101 "
b1100 "
0X
0W
1V
1+
0;
07
06
0?
1G
1N
0<
0A
1<
09
1I
0H
0=
0)
0B
1=
1L
0K
0(
0%
0'
0E
1D
1'
1#
0$
0I
1H
1&
0L
1K
1%
0#
1$
#173000
b1101 "
1X
0+
1;
16
1>
0<
1)
1B
0=
1E
0D
0'
1I
0H
0&
1L
0K
0%
1#
0$
#174000
b1111 "
b1110 "
0X
1W
1+
0;
17
06
1?
1A
0>
1<
19
0)
1=
1(
1'
#175000
b1111 "
1X
0+
1;
16
1>
0<
1)
0B
14
0=
0E
1D
1J
0G
0'
0I
1K
1&
0K
1$
0$
#176000
b1011 !
b111 "
b11 "
b1 "
b0 "
0X
0W
0V
0U
1T
1+
0;
07
06
0?
0J
1G
0N
1<
0L
1K
0D
12
0A
0>
0<
09
0K
1H
1=
0)
0#
1$
0&
04
0=
0(
0$
1%
1'
0G
0'
0H
0%
#177000
b1 "
1X
0+
1;
16
15
1<
1)
1*
1=
1'
#178000
b11 "
b10 "
0X
1W
1+
0;
17
05
1?
1A
0<
19
0*
1B
0=
1(
1D
0'
1&
#179000
b11 "
1X
0+
1;
18
06
15
13
1F
0A
09
0)
1*
1G
0B
0(
1H
0D
1%
0&
#180000
b111 "
b101 "
b100 "
0X
0W
1V
1+
0;
08
07
05
03
0?
1J
0G
1N
1<
19
0F
1K
0H
1=
0*
1(
0J
1G
1$
0%
1'
0K
1H
0$
1%
#181000
b101 "
1X
0+
1;
16
15
1>
0<
1)
1*
1B
0=
1D
0'
1&
#182000
b111 "
b110 "
0X
1W
1+
0;
17
05
1?
1A
0>
1<
1:
09
0*
1>
0(
0B
14
0D
1J
0G
1K
0H
0&
1$
0%
#183000
b111 "
1X
0+
1;
18
06
15
13
1F
0A
0:
19
0)
1*
1G
1B
04
0>
1=
1(
1H
1D
0G
0B
1'
0H
0D
1%
1&
0%
0&
#184000
b1111 "
b1011 "
b1001 "
b1000 "
0X
0W
0V
1U
1+
0;
08
07
05
03
0?
0J
1G
0N
0<
09
1L
0K
1D
1C
0=
0F
0L
1K
1H
0C
1=
1E
0D
0*
0(
1#
0$
1&
0'
0G
0E
1D
1I
0H
0#
1$
1%
1'
0&
0I
1L
0K
1&
0%
0L
1K
1#
0$
0#
1$
#185000
b1001 "
1X
0+
1;
16
15
1<
1)
1*
1C
0=
1E
0D
0'
1H
0&
1%
#186000
b1011 "
b1010 "
0X
1W
1+
0;
17
05
1?
1A
0<
19
0*
1B
0C
1=
1(
1'
#187000
b1011 "
1X
0+
1;
18
06
15
13
1F
0A
09
0)
1*
1G
0B
0(
1I
0H
0E
1D
1L
0K
0I
1H
0%
1&
0L
1K
1#
0$
1%
0#
1$
#188000
b1111 "
b1101 "
b1100 "
0X
0W
1V
1+
0;
08
07
05
03
0?
1J
0G
1N
1<
19
0F
1L
0K
0H
1C
0=
0*
1(
0J
1G
1E
0D
1#
0$
0%
0'
0L
1K
1I
0&
1L
0K
0#
1$
1#
0$
#189000
b1101 "
1X
0+
1;
16
15
1>
0<
1)
1*
1B
0C
1=
1'
#190000
b1111 "
b1110 "
0X
1W
1+
0;
17
05
1?
1A
0>
1<
1:
09
0*
1>
0(
0B
14
0E
1D
1J
0G
0I
1K
1&
0K
1$
0$
#191000
b1111 "
1X
0+
1;
18
06
15
13
1F
0A
0:
19
0)
1*
1G
1B
04
1C
0>
0=
1(
1H
1E
0G
0B
0'
0D
1%
0&
#192000
b1111 !
b1101 !
b1100 !
b111 "
b11 "
b1 "
b0 "
0X
0W
0V
0U
0T
0S
1R
1+
0;
08
07
05
03
0?
0J
1G
0N
0<
09
0L
1K
0E
1D
0C
1=
0F
0K
0=
0D
0*
0(
0#
1$
1&
1'
0G
0$
0'
0&
0H
0%
#193000
b1 "
1X
0+
1;
17
1<
19
1=
1(
1'
#194000
b11 "
b10 "
0X
1W
1+
07
1?
09
1A
1B
0(
1D
1&
#195000
b11 "
1X
0+
1@
0;
17
1F
0A
0<
19
1G
0B
0=
1(
1H
0D
0'
1%
0&
#196000
b111 "
b101 "
b100 "
0X
0W
1V
1+
0@
07
0?
1J
0G
1B
0F
09
1K
0H
1D
0J
1G
0(
1$
0%
1&
0K
1H
0$
1%
#197000
b101 "
1X
0+
1;
17
1<
19
1=
1(
1'
#198000
b111 "
b110 "
0X
1W
1+
07
1?
09
1A
0B
14
0(
0D
1J
0G
1K
0H
0&
1$
0%
#199000
b111 "
1X
0+
1@
0;
17
1F
0A
0<
19
1G
1B
04
0=
1(
1H
1D
0G
0'
0H
1%
1&
0%
#200000
b1111 "
b1011 "
b1001 "
b1000 "
0X
0W
0V
1U
1+
0@
07
0?
0J
1G
0B
1L
0K
1H
0F
09
0L
1K
1I
0H
0D
1#
0$
1%
0G
1L
0K
0(
0#
1$
0%
0&
0I
1H
1#
0$
0L
1K
1%
0#
1$
#201000
b1001 "
1X
0+
1;
17
1<
19
1=
1(
1'
#202000
b1011 "
b1010 "
0X
1W
1+
07
1?
09
1A
1B
0(
1D
1&
#203000
b1011 "
1X
0+
1@
0;
17
1F
0A
0<
19
1G
0B
0=
1(
1I
0H
0D
0'
1L
0K
0%
0&
1#
0$
#204000
b1111 "
b1101 "
b1100 "
0X
0W
1V
1+
0@
07
0?
1J
0G
1B
0F
09
1K
0I
1H
1D
0J
1G
0K
0(
1$
1%
1&
0L
1K
1I
0H
0$
1L
0K
0#
1$
0%
1#
0$
#205000
b1101 "
1X
0+
1;
17
1<
19
1=
1(
1'
#206000
b1111 "
b1110 "
0X
1W
1+
07
1?
09
1A
0B
14
0(
0D
1J
0G
1K
0I
1H
0&
0K
1$
1%
0$
#207000
b1111 "
1X
0+
1@
0;
17
1F
0A
0<
19
1G
1B
04
0=
1(
1I
0H
1D
0G
0'
1K
0I
1H
0%
1&
0K
1$
1%
0$
#208000
b1101 !
b111 "
b11 "
b1 "
b0 "
0X
0W
0V
0U
1T
1+
0@
07
0?
0J
1G
0B
0L
1K
0H
0F
09
0K
1H
0D
0#
1$
0%
0G
0(
0$
1%
0&
0H
0%
#209000
b1 "
1X
0+
1;
17
15
1<
19
1*
1=
1(
1'
#210000
b11 "
b10 "
0X
1W
1+
07
16
05
1?
09
1A
1)
0*
1B
0(
1D
1&
#211000
b11 "
1X
0+
1@
0;
17
15
1F
0A
0<
19
1*
1G
0B
0=
1(
1H
0D
0'
1%
0&
#212000
b111 "
b101 "
b100 "
0X
0W
1V
1+
0@
07
06
05
0?
1J
0G
1B
1:
09
0F
0:
19
1K
0H
1D
1=
0)
0*
0(
0J
1G
0=
1(
1$
0%
1&
1'
0K
1H
0'
0$
1%
#213000
b101 "
1X
0+
1;
17
15
1<
1:
09
1*
1>
0(
0B
14
0D
1J
0G
1K
0H
0&
1$
0%
#214000
b111 "
b110 "
0X
1W
1+
07
16
05
1?
0:
19
1A
1)
0*
0>
1=
1B
1(
0B
1D
1'
0D
1&
0&
#215000
b111 "
1X
0+
1@
0;
17
15
1F
0A
0<
1:
09
1*
1G
1B
04
0(
1H
1D
0G
0H
1%
1&
0%
#216000
b1111 "
b1011 "
b1001 "
b1000 "
0X
0W
0V
1U
1+
0@
07
06
05
0?
0J
1G
0B
0:
19
1L
0K
1H
1C
0=
0F
09
0L
1K
1I
0H
0C
1=
0)
0*
1(
1#
0$
1%
0'
0G
1L
0K
0D
0(
0#
1$
0%
1'
0I
1H
1#
0$
0&
0L
1K
1%
0#
1$
#217000
b1001 "
1X
0+
1;
17
15
1<
19
1*
1C
0=
1(
1D
0'
1&
#218000
b1011 "
b1010 "
0X
1W
1+
07
16
05
1?
09
1A
1)
0*
1B
0(
1E
0D
1I
0H
0&
1L
0K
0%
1#
0$
#219000
b1011 "
1X
0+
1@
0;
17
15
1F
0A
0<
19
1*
1G
0B
0C
1=
1(
1H
0E
1'
0H
1%
0%
#220000
b1111 "
b1101 "
b1100 "
0X
0W
1V
1+
0@
07
06
05
0?
1J
0G
1B
1:
09
0F
0:
19
1K
0I
1H
1D
1C
0=
0)
0*
0(
0J
1G
0C
1=
0K
1E
0D
1(
1$
1%
1&
0'
0L
1K
1I
0E
1D
1'
0$
0&
1L
0K
0H
0#
1$
1&
1#
0$
0%
#221000
b1101 "
1X
0+
1;
17
15
1<
1:
09
1*
1>
0(
0B
14
0D
1J
0G
1K
0I
1H
0&
0K
1$
1%
0$
#222000
b1111 "
b1110 "
0X
1W
1+
07
16
05
1?
0:
19
1A
1)
0*
1C
0>
0=
1B
1(
1E
0B
0'
1I
0H
0E
1D
1K
0I
1H
0%
1&
0K
1$
1%
0$
#223000
b1111 "
1X
0+
1@
0;
17
15
1F
0A
0<
1:
09
1*
1G
1B
04
0(
1I
0H
1E
0D
0G
1K
0%
0&
1$
#224000
b1111 !
b1110 !
b111 "
b11 "
b1 "
b0 "
0X
0W
0V
0U
0T
1S
1+
0@
07
06
05
0?
0J
1G
0B
0:
19
0K
0I
1H
0C
1=
0F
09
0L
1I
0H
0E
0=
0)
0*
1(
0$
1%
1'
0G
1K
0I
1H
0(
0#
0%
0'
0H
0K
1$
1%
0%
0$
