divisores_frecuencia/divisor_2_25/simulation/qsim/divisor_2_25.msim.vcd
$comment
	File created using the following command:
		vcd file divisor_2_25.msim.vcd -direction
$end
$date
	Thu Oct 26 11:28:11 2023
$end
$version
	ModelSim Version 10.1d
$end
$timescale
	1ps
$end
$scope module divisor_2_25_vlg_vec_tst $end
$var reg 1 ! Clk $end
$var wire 1 " oClk $end
$var wire 1 # sampler $end
$scope module i1 $end
$var wire 1 $ gnd $end
$var wire 1 % vcc $end
$var wire 1 & unknown $end
$var tri1 1 ' devclrn $end
$var tri1 1 ( devpor $end
$var tri1 1 ) devoe $end
$var wire 1 * div2|div2|div2|div1|div1|tmp~regout $end
$var wire 1 + div2|div2|div1|div2|div1|tmp~regout $end
$var wire 1 , div2|div2|div1|div1|div1|tmp~regout $end
$var wire 1 - div2|div1|div2|div2|div1|tmp~regout $end
$var wire 1 . div2|div1|div2|div1|div1|tmp~regout $end
$var wire 1 / div2|div1|div1|div2|div1|tmp~regout $end
$var wire 1 0 div2|div1|div1|div1|div1|tmp~regout $end
$var wire 1 1 div1|div2|div2|div2|div2|div1|tmp~regout $end
$var wire 1 2 div1|div2|div2|div2|div1|div1|tmp~regout $end
$var wire 1 3 div1|div2|div2|div1|div2|div1|tmp~regout $end
$var wire 1 4 div1|div2|div2|div1|div1|div1|tmp~regout $end
$var wire 1 5 div1|div2|div1|div2|div2|div1|tmp~regout $end
$var wire 1 6 div1|div2|div1|div2|div1|div1|tmp~regout $end
$var wire 1 7 div1|div2|div1|div1|div2|div1|tmp~regout $end
$var wire 1 8 div1|div2|div1|div1|div1|div1|tmp~regout $end
$var wire 1 9 div1|div1|div2|div2|div2|div1|tmp~regout $end
$var wire 1 : div1|div1|div2|div2|div1|div1|tmp~regout $end
$var wire 1 ; div1|div1|div2|div1|div2|div1|tmp~regout $end
$var wire 1 < div1|div1|div2|div1|div1|div1|tmp~regout $end
$var wire 1 = div1|div1|div1|div2|div2|div1|tmp~regout $end
$var wire 1 > div1|div1|div1|div2|div1|div1|tmp~regout $end
$var wire 1 ? div1|div1|div1|div1|div2|div1|tmp~regout $end
$var wire 1 @ div1|div1|div1|div1|div1|div1|tmp~regout $end
$var wire 1 A div2|div2|div2|div1|div1|tmp~0_combout $end
$var wire 1 B div2|div2|div1|div2|div1|tmp~0_combout $end
$var wire 1 C div2|div2|div1|div1|div1|tmp~0_combout $end
$var wire 1 D div2|div1|div2|div2|div1|tmp~0_combout $end
$var wire 1 E div2|div1|div2|div1|div1|tmp~0_combout $end
$var wire 1 F div2|div1|div1|div2|div1|tmp~0_combout $end
$var wire 1 G div2|div1|div1|div1|div1|tmp~0_combout $end
$var wire 1 H div1|div2|div2|div2|div2|div1|tmp~0_combout $end
$var wire 1 I div1|div2|div2|div2|div1|div1|tmp~0_combout $end
$var wire 1 J div1|div2|div2|div1|div2|div1|tmp~0_combout $end
$var wire 1 K div1|div2|div2|div1|div1|div1|tmp~0_combout $end
$var wire 1 L div1|div2|div1|div2|div2|div1|tmp~0_combout $end
$var wire 1 M div1|div2|div1|div2|div1|div1|tmp~0_combout $end
$var wire 1 N div1|div2|div1|div1|div2|div1|tmp~0_combout $end
$var wire 1 O div1|div2|div1|div1|div1|div1|tmp~0_combout $end
$var wire 1 P div1|div1|div2|div2|div2|div1|tmp~0_combout $end
$var wire 1 Q div1|div1|div2|div2|div1|div1|tmp~0_combout $end
$var wire 1 R div1|div1|div2|div1|div2|div1|tmp~0_combout $end
$var wire 1 S div1|div1|div2|div1|div1|div1|tmp~0_combout $end
$var wire 1 T div1|div1|div1|div2|div2|div1|tmp~0_combout $end
$var wire 1 U div1|div1|div1|div2|div1|div1|tmp~0_combout $end
$var wire 1 V div1|div1|div1|div1|div2|div1|tmp~0_combout $end
$var wire 1 W div1|div1|div1|div1|div1|div1|tmp~0_combout $end
$var wire 1 X Clk~combout $end
$var wire 1 Y div2|div2|div2|div2|div1|tmp~0_combout $end
$var wire 1 Z div2|div2|div2|div2|div1|tmp~regout $end
$var wire 1 [ div3|div1|tmp~0_combout $end
$var wire 1 \ div3|div1|tmp~regout $end
$upscope $end
$upscope $end
$enddefinitions $end
#0
$dumpvars
0!
0"
x#
0$
1%
x&
1'
1(
1)
0*
0+
0,
0-
0.
0/
00
01
02
03
04
05
06
07
08
09
0:
0;
0<
0=
0>
0?
0@
1A
1B
1C
1D
1E
1F
1G
1H
1I
1J
1K
1L
1M
1N
1O
1P
1Q
1R
1S
1T
1U
1V
1W
0X
1Y
0Z
1[
0\
$end
#5000
1!
1X
0#
1@
0W
1?
0V
1>
0U
1=
0T
1<
0S
1;
0R
1:
0Q
19
0P
18
0O
17
0N
16
0M
15
0L
14
0K
13
0J
12
0I
11
0H
10
0G
1/
0F
1.
0E
1-
0D
1,
0C
1+
0B
1*
0A
1Z
0Y
1\
0[
1"
#10000
0!
0X
1#
#15000
1!
1X
0#
0@
1W
#20000
0!
0X
1#
#25000
1!
1X
0#
1@
0W
0?
1V
#30000
0!
0X
1#
#35000
1!
1X
0#
0@
1W
#40000
0!
0X
1#
#45000
1!
1X
0#
1@
0W
1?
0V
0>
1U
#50000
0!
0X
1#
#55000
1!
1X
0#
0@
1W
#60000
0!
0X
1#
#65000
1!
1X
0#
1@
0W
0?
1V
#70000
0!
0X
1#
#75000
1!
1X
0#
0@
1W
#80000
0!
0X
1#
#85000
1!
1X
0#
1@
0W
1?
0V
1>
0U
0=
1T
#90000
0!
0X
1#
#95000
1!
1X
0#
0@
1W
#100000
0!
0X
1#
#105000
1!
1X
0#
1@
0W
0?
1V
#110000
0!
0X
1#
#115000
1!
1X
0#
0@
1W
#120000
0!
0X
1#
#125000
1!
1X
0#
1@
0W
1?
0V
0>
1U
#130000
0!
0X
1#
#135000
1!
1X
0#
0@
1W
#140000
0!
0X
1#
#145000
1!
1X
0#
1@
0W
0?
1V
#150000
0!
0X
1#
#155000
1!
1X
0#
0@
1W
#160000
0!
0X
1#
#165000
1!
1X
0#
1@
0W
1?
0V
1>
0U
1=
0T
0<
1S
#170000
0!
0X
1#
#175000
1!
1X
0#
0@
1W
#180000
0!
0X
1#
#185000
1!
1X
0#
1@
0W
0?
1V
#190000
0!
0X
1#
#195000
1!
1X
0#
0@
1W
#200000
0!
0X
1#
#205000
1!
1X
0#
1@
0W
1?
0V
0>
1U
#210000
0!
0X
1#
#215000
1!
1X
0#
0@
1W
#220000
0!
0X
1#
#225000
1!
1X
0#
1@
0W
0?
1V
#230000
0!
0X
1#
#235000
1!
1X
0#
0@
1W
#240000
0!
0X
1#
#245000
1!
1X
0#
1@
0W
1?
0V
1>
0U
0=
1T
#250000
0!
0X
1#
#255000
1!
1X
0#
0@
1W
#260000
0!
0X
1#
#265000
1!
1X
0#
1@
0W
0?
1V
#270000
0!
0X
1#
#275000
1!
1X
0#
0@
1W
#280000
0!
0X
1#
#285000
1!
1X
0#
1@
0W
1?
0V
0>
1U
#290000
0!
0X
1#
#295000
1!
1X
0#
0@
1W
#300000
0!
0X
1#
#305000
1!
1X
0#
1@
0W
0?
1V
#310000
0!
0X
1#
#315000
1!
1X
0#
0@
1W
#320000
0!
0X
1#
#325000
1!
1X
0#
1@
0W
1?
0V
1>
0U
1=
0T
1<
0S
0;
1R
#330000
0!
0X
1#
#335000
1!
1X
0#
0@
1W
#340000
0!
0X
1#
#345000
1!
1X
0#
1@
0W
0?
1V
#350000
0!
0X
1#
#355000
1!
1X
0#
0@
1W
#360000
0!
0X
1#
#365000
1!
1X
0#
1@
0W
1?
0V
0>
1U
#370000
0!
0X
1#
#375000
1!
1X
0#
0@
1W
#380000
0!
0X
1#
#385000
1!
1X
0#
1@
0W
0?
1V
#390000
0!
0X
1#
#395000
1!
1X
0#
0@
1W
#400000
0!
0X
1#
#405000
1!
1X
0#
1@
0W
1?
0V
1>
0U
0=
1T
#410000
0!
0X
1#
#415000
1!
1X
0#
0@
1W
#420000
0!
0X
1#
#425000
1!
1X
0#
1@
0W
0?
1V
#430000
0!
0X
1#
#435000
1!
1X
0#
0@
1W
#440000
0!
0X
1#
#445000
1!
1X
0#
1@
0W
1?
0V
0>
1U
#450000
0!
0X
1#
#455000
1!
1X
0#
0@
1W
#460000
0!
0X
1#
#465000
1!
1X
0#
1@
0W
0?
1V
#470000
0!
0X
1#
#475000
1!
1X
0#
0@
1W
#480000
0!
0X
1#
#485000
1!
1X
0#
1@
0W
1?
0V
1>
0U
1=
0T
0<
1S
#490000
0!
0X
1#
#495000
1!
1X
0#
0@
1W
#500000
0!
0X
1#
#505000
1!
1X
0#
1@
0W
0?
1V
#510000
0!
0X
1#
#515000
1!
1X
0#
0@
1W
#520000
0!
0X
1#
#525000
1!
1X
0#
1@
0W
1?
0V
0>
1U
#530000
0!
0X
1#
#535000
1!
1X
0#
0@
1W
#540000
0!
0X
1#
#545000
1!
1X
0#
1@
0W
0?
1V
#550000
0!
0X
1#
#555000
1!
1X
0#
0@
1W
#560000
0!
0X
1#
#565000
1!
1X
0#
1@
0W
1?
0V
1>
0U
0=
1T
#570000
0!
0X
1#
#575000
1!
1X
0#
0@
1W
#580000
0!
0X
1#
#585000
1!
1X
0#
1@
0W
0?
1V
#590000
0!
0X
1#
#595000
1!
1X
0#
0@
1W
#600000
0!
0X
1#
#605000
1!
1X
0#
1@
0W
1?
0V
0>
1U
#610000
0!
0X
1#
#615000
1!
1X
0#
0@
1W
#620000
0!
0X
1#
#625000
1!
1X
0#
1@
0W
0?
1V
#630000
0!
0X
1#
#635000
1!
1X
0#
0@
1W
#640000
0!
0X
1#
#645000
1!
1X
0#
1@
0W
1?
0V
1>
0U
1=
0T
1<
0S
1;
0R
0:
1Q
#650000
0!
0X
1#
#655000
1!
1X
0#
0@
1W
#660000
0!
0X
1#
#665000
1!
1X
0#
1@
0W
0?
1V
#670000
0!
0X
1#
#675000
1!
1X
0#
0@
1W
#680000
0!
0X
1#
#685000
1!
1X
0#
1@
0W
1?
0V
0>
1U
#690000
0!
0X
1#
#695000
1!
1X
0#
0@
1W
#700000
0!
0X
1#
#705000
1!
1X
0#
1@
0W
0?
1V
#710000
0!
0X
1#
#715000
1!
1X
0#
0@
1W
#720000
0!
0X
1#
#725000
1!
1X
0#
1@
0W
1?
0V
1>
0U
0=
1T
#730000
0!
0X
1#
#735000
1!
1X
0#
0@
1W
#740000
0!
0X
1#
#745000
1!
1X
0#
1@
0W
0?
1V
#750000
0!
0X
1#
#755000
1!
1X
0#
0@
1W
#760000
0!
0X
1#
#765000
1!
1X
0#
1@
0W
1?
0V
0>
1U
#770000
0!
0X
1#
#775000
1!
1X
0#
0@
1W
#780000
0!
0X
1#
#785000
1!
1X
0#
1@
0W
0?
1V
#790000
0!
0X
1#
#795000
1!
1X
0#
0@
1W
#800000
0!
0X
1#
#805000
1!
1X
0#
1@
0W
1?
0V
1>
0U
1=
0T
0<
1S
#810000
0!
0X
1#
#815000
1!
1X
0#
0@
1W
#820000
0!
0X
1#
#825000
1!
1X
0#
1@
0W
0?
1V
#830000
0!
0X
1#
#835000
1!
1X
0#
0@
1W
#840000
0!
0X
1#
#845000
1!
1X
0#
1@
0W
1?
0V
0>
1U
#850000
0!
0X
1#
#855000
1!
1X
0#
0@
1W
#860000
0!
0X
1#
#865000
1!
1X
0#
1@
0W
0?
1V
#870000
0!
0X
1#
#875000
1!
1X
0#
0@
1W
#880000
0!
0X
1#
#885000
1!
1X
0#
1@
0W
1?
0V
1>
0U
0=
1T
#890000
0!
0X
1#
#895000
1!
1X
0#
0@
1W
#900000
0!
0X
1#
#905000
1!
1X
0#
1@
0W
0?
1V
#910000
0!
0X
1#
#915000
1!
1X
0#
0@
1W
#920000
0!
0X
1#
#925000
1!
1X
0#
1@
0W
1?
0V
0>
1U
#930000
0!
0X
1#
#935000
1!
1X
0#
0@
1W
#940000
0!
0X
1#
#945000
1!
1X
0#
1@
0W
0?
1V
#950000
0!
0X
1#
#955000
1!
1X
0#
0@
1W
#960000
0!
0X
1#
#965000
1!
1X
0#
1@
0W
1?
0V
1>
0U
1=
0T
1<
0S
0;
1R
#970000
0!
0X
1#
#975000
1!
1X
0#
0@
1W
#980000
0!
0X
1#
#985000
1!
1X
0#
1@
0W
0?
1V
#990000
0!
0X
1#
#995000
1!
1X
0#
0@
1W
#1000000
0!
0X
1#
#1005000
1!
1X
0#
1@
0W
1?
0V
0>
1U
#1010000
0!
0X
1#
#1015000
1!
1X
0#
0@
1W
#1020000
0!
0X
1#
#1025000
1!
1X
0#
1@
0W
0?
1V
#1030000
0!
0X
1#
#1035000
1!
1X
0#
0@
1W
#1040000
0!
0X
1#
#1045000
1!
1X
0#
1@
0W
1?
0V
1>
0U
0=
1T
#1050000
0!
0X
1#
#1055000
1!
1X
0#
0@
1W
#1060000
0!
0X
1#
#1065000
1!
1X
0#
1@
0W
0?
1V
#1070000
0!
0X
1#
#1075000
1!
1X
0#
0@
1W
#1080000
0!
0X
1#
#1085000
1!
1X
0#
1@
0W
1?
0V
0>
1U
#1090000
0!
0X
1#
#1095000
1!
1X
0#
0@
1W
#1100000
0!
0X
1#
#1105000
1!
1X
0#
1@
0W
0?
1V
#1110000
0!
0X
1#
#1115000
1!
1X
0#
0@
1W
#1120000
0!
0X
1#
#1125000
1!
1X
0#
1@
0W
1?
0V
1>
0U
1=
0T
0<
1S
#1130000
0!
0X
1#
#1135000
1!
1X
0#
0@
1W
#1140000
0!
0X
1#
#1145000
1!
1X
0#
1@
0W
0?
1V
#1150000
0!
0X
1#
#1155000
1!
1X
0#
0@
1W
#1160000
0!
0X
1#
#1165000
1!
1X
0#
1@
0W
1?
0V
0>
1U
#1170000
0!
0X
1#
#1175000
1!
1X
0#
0@
1W
#1180000
0!
0X
1#
#1185000
1!
1X
0#
1@
0W
0?
1V
#1190000
0!
0X
1#
#1195000
1!
1X
0#
0@
1W
#1200000
0!
0X
1#
#1205000
1!
1X
0#
1@
0W
1?
0V
1>
0U
0=
1T
#1210000
0!
0X
1#
#1215000
1!
1X
0#
0@
1W
#1220000
0!
0X
1#
#1225000
1!
1X
0#
1@
0W
0?
1V
#1230000
0!
0X
1#
#1235000
1!
1X
0#
0@
1W
#1240000
0!
0X
1#
#1245000
1!
1X
0#
1@
0W
1?
0V
0>
1U
#1250000
0!
0X
1#
#1255000
1!
1X
0#
0@
1W
#1260000
0!
0X
1#
#1265000
1!
1X
0#
1@
0W
0?
1V
#1270000
0!
0X
1#
#1275000
1!
1X
0#
0@
1W
#1280000
0!
0X
1#
#1285000
1!
1X
0#
1@
0W
1?
0V
1>
0U
1=
0T
1<
0S
1;
0R
1:
0Q
09
1P
#1290000
0!
0X
1#
#1295000
1!
1X
0#
0@
1W
#1300000
0!
0X
1#
#1305000
1!
1X
0#
1@
0W
0?
1V
#1310000
0!
0X
1#
#1315000
1!
1X
0#
0@
1W
#1320000
0!
0X
1#
#1325000
1!
1X
0#
1@
0W
1?
0V
0>
1U
#1330000
0!
0X
1#
#1335000
1!
1X
0#
0@
1W
#1340000
0!
0X
1#
#1345000
1!
1X
0#
1@
0W
0?
1V
#1350000
0!
0X
1#
#1355000
1!
1X
0#
0@
1W
#1360000
0!
0X
1#
#1365000
1!
1X
0#
1@
0W
1?
0V
1>
0U
0=
1T
#1370000
0!
0X
1#
#1375000
1!
1X
0#
0@
1W
#1380000
0!
0X
1#
#1385000
1!
1X
0#
1@
0W
0?
1V
#1390000
0!
0X
1#
#1395000
1!
1X
0#
0@
1W
#1400000
0!
0X
1#
#1405000
1!
1X
0#
1@
0W
1?
0V
0>
1U
#1410000
0!
0X
1#
#1415000
1!
1X
0#
0@
1W
#1420000
0!
0X
1#
#1425000
1!
1X
0#
1@
0W
0?
1V
#1430000
0!
0X
1#
#1435000
1!
1X
0#
0@
1W
#1440000
0!
0X
1#
#1445000
1!
1X
0#
1@
0W
1?
0V
1>
0U
1=
0T
0<
1S
#1450000
0!
0X
1#
#1455000
1!
1X
0#
0@
1W
#1460000
0!
0X
1#
#1465000
1!
1X
0#
1@
0W
0?
1V
#1470000
0!
0X
1#
#1475000
1!
1X
0#
0@
1W
#1480000
0!
0X
1#
#1485000
1!
1X
0#
1@
0W
1?
0V
0>
1U
#1490000
0!
0X
1#
#1495000
1!
1X
0#
0@
1W
#1500000
0!
0X
1#
#1505000
1!
1X
0#
1@
0W
0?
1V
#1510000
0!
0X
1#
#1515000
1!
1X
0#
0@
1W
#1520000
0!
0X
1#
#1525000
1!
1X
0#
1@
0W
1?
0V
1>
0U
0=
1T
#1530000
0!
0X
1#
#1535000
1!
1X
0#
0@
1W
#1540000
0!
0X
1#
#1545000
1!
1X
0#
1@
0W
0?
1V
#1550000
0!
0X
1#
#1555000
1!
1X
0#
0@
1W
#1560000
0!
0X
1#
#1565000
1!
1X
0#
1@
0W
1?
0V
0>
1U
#1570000
0!
0X
1#
#1575000
1!
1X
0#
0@
1W
#1580000
0!
0X
1#
#1585000
1!
1X
0#
1@
0W
0?
1V
#1590000
0!
0X
1#
#1595000
1!
1X
0#
0@
1W
#1600000
0!
0X
1#
#1605000
1!
1X
0#
1@
0W
1?
0V
1>
0U
1=
0T
1<
0S
0;
1R
#1610000
0!
0X
1#
#1615000
1!
1X
0#
0@
1W
#1620000
0!
0X
1#
#1625000
1!
1X
0#
1@
0W
0?
1V
#1630000
0!
0X
1#
#1635000
1!
1X
0#
0@
1W
#1640000
0!
0X
1#
#1645000
1!
1X
0#
1@
0W
1?
0V
0>
1U
#1650000
0!
0X
1#
#1655000
1!
1X
0#
0@
1W
#1660000
0!
0X
1#
#1665000
1!
1X
0#
1@
0W
0?
1V
#1670000
0!
0X
1#
#1675000
1!
1X
0#
0@
1W
#1680000
0!
0X
1#
#1685000
1!
1X
0#
1@
0W
1?
0V
1>
0U
0=
1T
#1690000
0!
0X
1#
#1695000
1!
1X
0#
0@
1W
#1700000
0!
0X
1#
#1705000
1!
1X
0#
1@
0W
0?
1V
#1710000
0!
0X
1#
#1715000
1!
1X
0#
0@
1W
#1720000
0!
0X
1#
#1725000
1!
1X
0#
1@
0W
1?
0V
0>
1U
#1730000
0!
0X
1#
#1735000
1!
1X
0#
0@
1W
#1740000
0!
0X
1#
#1745000
1!
1X
0#
1@
0W
0?
1V
#1750000
0!
0X
1#
#1755000
1!
1X
0#
0@
1W
#1760000
0!
0X
1#
#1765000
1!
1X
0#
1@
0W
1?
0V
1>
0U
1=
0T
0<
1S
#1770000
0!
0X
1#
#1775000
1!
1X
0#
0@
1W
#1780000
0!
0X
1#
#1785000
1!
1X
0#
1@
0W
0?
1V
#1790000
0!
0X
1#
#1795000
1!
1X
0#
0@
1W
#1800000
0!
0X
1#
#1805000
1!
1X
0#
1@
0W
1?
0V
0>
1U
#1810000
0!
0X
1#
#1815000
1!
1X
0#
0@
1W
#1820000
0!
0X
1#
#1825000
1!
1X
0#
1@
0W
0?
1V
#1830000
0!
0X
1#
#1835000
1!
1X
0#
0@
1W
#1840000
0!
0X
1#
#1845000
1!
1X
0#
1@
0W
1?
0V
1>
0U
0=
1T
#1850000
0!
0X
1#
#1855000
1!
1X
0#
0@
1W
#1860000
0!
0X
1#
#1865000
1!
1X
0#
1@
0W
0?
1V
#1870000
0!
0X
1#
#1875000
1!
1X
0#
0@
1W
#1880000
0!
0X
1#
#1885000
1!
1X
0#
1@
0W
1?
0V
0>
1U
#1890000
0!
0X
1#
#1895000
1!
1X
0#
0@
1W
#1900000
0!
0X
1#
#1905000
1!
1X
0#
1@
0W
0?
1V
#1910000
0!
0X
1#
#1915000
1!
1X
0#
0@
1W
#1920000
0!
0X
1#
#1925000
1!
1X
0#
1@
0W
1?
0V
1>
0U
1=
0T
1<
0S
1;
0R
0:
1Q
#1930000
0!
0X
1#
#1935000
1!
1X
0#
0@
1W
#1940000
0!
0X
1#
#1945000
1!
1X
0#
1@
0W
0?
1V
#1950000
0!
0X
1#
#1955000
1!
1X
0#
0@
1W
#1960000
0!
0X
1#
#1965000
1!
1X
0#
1@
0W
1?
0V
0>
1U
#1970000
0!
0X
1#
#1975000
1!
1X
0#
0@
1W
#1980000
0!
0X
1#
#1985000
1!
1X
0#
1@
0W
0?
1V
#1990000
0!
0X
1#
#1995000
1!
1X
0#
0@
1W
#2000000
0!
0X
1#
#2005000
1!
1X
0#
1@
0W
1?
0V
1>
0U
0=
1T
#2010000
0!
0X
1#
#2015000
1!
1X
0#
0@
1W
#2020000
0!
0X
1#
#2025000
1!
1X
0#
1@
0W
0?
1V
#2030000
0!
0X
1#
#2035000
1!
1X
0#
0@
1W
#2040000
0!
0X
1#
#2045000
1!
1X
0#
1@
0W
1?
0V
0>
1U
#2050000
0!
0X
1#
#2055000
1!
1X
0#
0@
1W
#2060000
0!
0X
1#
#2065000
1!
1X
0#
1@
0W
0?
1V
#2070000
0!
0X
1#
#2075000
1!
1X
0#
0@
1W
#2080000
0!
0X
1#
#2085000
1!
1X
0#
1@
0W
1?
0V
1>
0U
1=
0T
0<
1S
#2090000
0!
0X
1#
#2095000
1!
1X
0#
0@
1W
#2100000
0!
0X
1#
#2105000
1!
1X
0#
1@
0W
0?
1V
#2110000
0!
0X
1#
#2115000
1!
1X
0#
0@
1W
#2120000
0!
0X
1#
#2125000
1!
1X
0#
1@
0W
1?
0V
0>
1U
#2130000
0!
0X
1#
#2135000
1!
1X
0#
0@
1W
#2140000
0!
0X
1#
#2145000
1!
1X
0#
1@
0W
0?
1V
#2150000
0!
0X
1#
#2155000
1!
1X
0#
0@
1W
#2160000
0!
0X
1#
#2165000
1!
1X
0#
1@
0W
1?
0V
1>
0U
0=
1T
#2170000
0!
0X
1#
#2175000
1!
1X
0#
0@
1W
#2180000
0!
0X
1#
#2185000
1!
1X
0#
1@
0W
0?
1V
#2190000
0!
0X
1#
#2195000
1!
1X
0#
0@
1W
#2200000
0!
0X
1#
#2205000
1!
1X
0#
1@
0W
1?
0V
0>
1U
#2210000
0!
0X
1#
#2215000
1!
1X
0#
0@
1W
#2220000
0!
0X
1#
#2225000
1!
1X
0#
1@
0W
0?
1V
#2230000
0!
0X
1#
#2235000
1!
1X
0#
0@
1W
#2240000
0!
0X
1#
#2245000
1!
1X
0#
1@
0W
1?
0V
1>
0U
1=
0T
1<
0S
0;
1R
#2250000
0!
0X
1#
#2255000
1!
1X
0#
0@
1W
#2260000
0!
0X
1#
#2265000
1!
1X
0#
1@
0W
0?
1V
#2270000
0!
0X
1#
#2275000
1!
1X
0#
0@
1W
#2280000
0!
0X
1#
#2285000
1!
1X
0#
1@
0W
1?
0V
0>
1U
#2290000
0!
0X
1#
#2295000
1!
1X
0#
0@
1W
#2300000
0!
0X
1#
#2305000
1!
1X
0#
1@
0W
0?
1V
#2310000
0!
0X
1#
#2315000
1!
1X
0#
0@
1W
#2320000
0!
0X
1#
#2325000
1!
1X
0#
1@
0W
1?
0V
1>
0U
0=
1T
#2330000
0!
0X
1#
#2335000
1!
1X
0#
0@
1W
#2340000
0!
0X
1#
#2345000
1!
1X
0#
1@
0W
0?
1V
#2350000
0!
0X
1#
#2355000
1!
1X
0#
0@
1W
#2360000
0!
0X
1#
#2365000
1!
1X
0#
1@
0W
1?
0V
0>
1U
#2370000
0!
0X
1#
#2375000
1!
1X
0#
0@
1W
#2380000
0!
0X
1#
#2385000
1!
1X
0#
1@
0W
0?
1V
#2390000
0!
0X
1#
#2395000
1!
1X
0#
0@
1W
#2400000
0!
0X
1#
#2405000
1!
1X
0#
1@
0W
1?
0V
1>
0U
1=
0T
0<
1S
#2410000
0!
0X
1#
#2415000
1!
1X
0#
0@
1W
#2420000
0!
0X
1#
#2425000
1!
1X
0#
1@
0W
0?
1V
#2430000
0!
0X
1#
#2435000
1!
1X
0#
0@
1W
#2440000
0!
0X
1#
#2445000
1!
1X
0#
1@
0W
1?
0V
0>
1U
#2450000
0!
0X
1#
#2455000
1!
1X
0#
0@
1W
#2460000
0!
0X
1#
#2465000
1!
1X
0#
1@
0W
0?
1V
#2470000
0!
0X
1#
#2475000
1!
1X
0#
0@
1W
#2480000
0!
0X
1#
#2485000
1!
1X
0#
1@
0W
1?
0V
1>
0U
0=
1T
#2490000
0!
0X
1#
#2495000
1!
1X
0#
0@
1W
#2500000
0!
0X
1#
#2505000
1!
1X
0#
1@
0W
0?
1V
#2510000
0!
0X
1#
#2515000
1!
1X
0#
0@
1W
#2520000
0!
0X
1#
#2525000
1!
1X
0#
1@
0W
1?
0V
0>
1U
#2530000
0!
0X
1#
#2535000
1!
1X
0#
0@
1W
#2540000
0!
0X
1#
#2545000
1!
1X
0#
1@
0W
0?
1V
#2550000
0!
0X
1#
#2555000
1!
1X
0#
0@
1W
#2560000
0!
0X
1#
#2565000
1!
1X
0#
1@
0W
1?
0V
1>
0U
1=
0T
1<
0S
1;
0R
1:
0Q
19
0P
08
1O
#2570000
0!
0X
1#
#2575000
1!
1X
0#
0@
1W
#2580000
0!
0X
1#
#2585000
1!
1X
0#
1@
0W
0?
1V
#2590000
0!
0X
1#
#2595000
1!
1X
0#
0@
1W
#2600000
0!
0X
1#
#2605000
1!
1X
0#
1@
0W
1?
0V
0>
1U
#2610000
0!
0X
1#
#2615000
1!
1X
0#
0@
1W
#2620000
0!
0X
1#
#2625000
1!
1X
0#
1@
0W
0?
1V
#2630000
0!
0X
1#
#2635000
1!
1X
0#
0@
1W
#2640000
0!
0X
1#
#2645000
1!
1X
0#
1@
0W
1?
0V
1>
0U
0=
1T
#2650000
0!
0X
1#
#2655000
1!
1X
0#
0@
1W
#2660000
0!
0X
1#
#2665000
1!
1X
0#
1@
0W
0?
1V
#2670000
0!
0X
1#
#2675000
1!
1X
0#
0@
1W
#2680000
0!
0X
1#
#2685000
1!
1X
0#
1@
0W
1?
0V
0>
1U
#2690000
0!
0X
1#
#2695000
1!
1X
0#
0@
1W
#2700000
0!
0X
1#
#2705000
1!
1X
0#
1@
0W
0?
1V
#2710000
0!
0X
1#
#2715000
1!
1X
0#
0@
1W
#2720000
0!
0X
1#
#2725000
1!
1X
0#
1@
0W
1?
0V
1>
0U
1=
0T
0<
1S
#2730000
0!
0X
1#
#2735000
1!
1X
0#
0@
1W
#2740000
0!
0X
1#
#2745000
1!
1X
0#
1@
0W
0?
1V
#2750000
0!
0X
1#
#2755000
1!
1X
0#
0@
1W
#2760000
0!
0X
1#
#2765000
1!
1X
0#
1@
0W
1?
0V
0>
1U
#2770000
0!
0X
1#
#2775000
1!
1X
0#
0@
1W
#2780000
0!
0X
1#
#2785000
1!
1X
0#
1@
0W
0?
1V
#2790000
0!
0X
1#
#2795000
1!
1X
0#
0@
1W
#2800000
0!
0X
1#
#2805000
1!
1X
0#
1@
0W
1?
0V
1>
0U
0=
1T
#2810000
0!
0X
1#
#2815000
1!
1X
0#
0@
1W
#2820000
0!
0X
1#
#2825000
1!
1X
0#
1@
0W
0?
1V
#2830000
0!
0X
1#
#2835000
1!
1X
0#
0@
1W
#2840000
0!
0X
1#
#2845000
1!
1X
0#
1@
0W
1?
0V
0>
1U
#2850000
0!
0X
1#
#2855000
1!
1X
0#
0@
1W
#2860000
0!
0X
1#
#2865000
1!
1X
0#
1@
0W
0?
1V
#2870000
0!
0X
1#
#2875000
1!
1X
0#
0@
1W
#2880000
0!
0X
1#
#2885000
1!
1X
0#
1@
0W
1?
0V
1>
0U
1=
0T
1<
0S
0;
1R
#2890000
0!
0X
1#
#2895000
1!
1X
0#
0@
1W
#2900000
0!
0X
1#
#2905000
1!
1X
0#
1@
0W
0?
1V
#2910000
0!
0X
1#
#2915000
1!
1X
0#
0@
1W
#2920000
0!
0X
1#
#2925000
1!
1X
0#
1@
0W
1?
0V
0>
1U
#2930000
0!
0X
1#
#2935000
1!
1X
0#
0@
1W
#2940000
0!
0X
1#
#2945000
1!
1X
0#
1@
0W
0?
1V
#2950000
0!
0X
1#
#2955000
1!
1X
0#
0@
1W
#2960000
0!
0X
1#
#2965000
1!
1X
0#
1@
0W
1?
0V
1>
0U
0=
1T
#2970000
0!
0X
1#
#2975000
1!
1X
0#
0@
1W
#2980000
0!
0X
1#
#2985000
1!
1X
0#
1@
0W
0?
1V
#2990000
0!
0X
1#
#2995000
1!
1X
0#
0@
1W
#3000000
0!
0X
1#
#3005000
1!
1X
0#
1@
0W
1?
0V
0>
1U
#3010000
0!
0X
1#
#3015000
1!
1X
0#
0@
1W
#3020000
0!
0X
1#
#3025000
1!
1X
0#
1@
0W
0?
1V
#3030000
0!
0X
1#
#3035000
1!
1X
0#
0@
1W
#3040000
0!
0X
1#
#3045000
1!
1X
0#
1@
0W
1?
0V
1>
0U
1=
0T
0<
1S
#3050000
0!
0X
1#
#3055000
1!
1X
0#
0@
1W
#3060000
0!
0X
1#
#3065000
1!
1X
0#
1@
0W
0?
1V
#3070000
0!
0X
1#
#3075000
1!
1X
0#
0@
1W
#3080000
0!
0X
1#
#3085000
1!
1X
0#
1@
0W
1?
0V
0>
1U
#3090000
0!
0X
1#
#3095000
1!
1X
0#
0@
1W
#3100000
0!
0X
1#
#3105000
1!
1X
0#
1@
0W
0?
1V
#3110000
0!
0X
1#
#3115000
1!
1X
0#
0@
1W
#3120000
0!
0X
1#
#3125000
1!
1X
0#
1@
0W
1?
0V
1>
0U
0=
1T
#3130000
0!
0X
1#
#3135000
1!
1X
0#
0@
1W
#3140000
0!
0X
1#
#3145000
1!
1X
0#
1@
0W
0?
1V
#3150000
0!
0X
1#
#3155000
1!
1X
0#
0@
1W
#3160000
0!
0X
1#
#3165000
1!
1X
0#
1@
0W
1?
0V
0>
1U
#3170000
0!
0X
1#
#3175000
1!
1X
0#
0@
1W
#3180000
0!
0X
1#
#3185000
1!
1X
0#
1@
0W
0?
1V
#3190000
0!
0X
1#
#3195000
1!
1X
0#
0@
1W
#3200000
0!
0X
1#
