bin_2_bcd/simulation/qsim/bin_2_bcd.msim.vcd
$comment
	File created using the following command:
		vcd file bin_2_bcd.msim.vcd -direction
$end
$date
	Thu Oct 26 11:49:15 2023
$end
$version
	ModelSim Version 10.1d
$end
$timescale
	1ps
$end
$scope module bin_2_bcd_vlg_vec_tst $end
$var reg 8 ! Bin [7:0] $end
$var wire 1 " Cen [3] $end
$var wire 1 # Cen [2] $end
$var wire 1 $ Cen [1] $end
$var wire 1 % Cen [0] $end
$var wire 1 & Dec [3] $end
$var wire 1 ' Dec [2] $end
$var wire 1 ( Dec [1] $end
$var wire 1 ) Dec [0] $end
$var wire 1 * Uni [3] $end
$var wire 1 + Uni [2] $end
$var wire 1 , Uni [1] $end
$var wire 1 - Uni [0] $end
$var wire 1 . sampler $end
$scope module i1 $end
$var wire 1 / gnd $end
$var wire 1 0 vcc $end
$var wire 1 1 unknown $end
$var tri1 1 2 devclrn $end
$var tri1 1 3 devpor $end
$var tri1 1 4 devoe $end
$var wire 1 5 x[4]~30_combout $end
$var wire 1 6 x[4]~31_combout $end
$var wire 1 7 x[1]~56_combout $end
$var wire 1 8 x[1]~57_combout $end
$var wire 1 9 x[3]~77_combout $end
$var wire 1 : x[3]~78_combout $end
$var wire 1 ; x[3]~79_combout $end
$var wire 1 < x[4]~89_combout $end
$var wire 1 = x[1]~90_combout $end
$var wire 1 > x[5]~12_combout $end
$var wire 1 ? x[1]~20_combout $end
$var wire 1 @ x[8]~21_combout $end
$var wire 1 A x[8]~22_combout $end
$var wire 1 B x[8]~23_combout $end
$var wire 1 C x[8]~24_combout $end
$var wire 1 D x[8]~25_combout $end
$var wire 1 E x[8]~26_combout $end
$var wire 1 F x[2]~27_combout $end
$var wire 1 G x[9]~28_combout $end
$var wire 1 H x[4]~98_combout $end
$var wire 1 I x[4]~99_combout $end
$var wire 1 J x[4]~32_combout $end
$var wire 1 K x[4]~33_combout $end
$var wire 1 L x[4]~34_combout $end
$var wire 1 M x[4]~35_combout $end
$var wire 1 N x[4]~36_combout $end
$var wire 1 O x[4]~37_combout $end
$var wire 1 P x[4]~96_combout $end
$var wire 1 Q x[4]~97_combout $end
$var wire 1 R x[4]~38_combout $end
$var wire 1 S x[4]~39_combout $end
$var wire 1 T Equal0~5_combout $end
$var wire 1 U Equal0~4_combout $end
$var wire 1 V x[4]~40_combout $end
$var wire 1 W x[5]~41_combout $end
$var wire 1 X x[5]~42_combout $end
$var wire 1 Y x[4]~29_combout $end
$var wire 1 Z x[5]~43_combout $end
$var wire 1 [ x[5]~13_combout $end
$var wire 1 \ x[5]~92_combout $end
$var wire 1 ] x[5]~44_combout $end
$var wire 1 ^ x[6]~45_combout $end
$var wire 1 _ x[6]~46_combout $end
$var wire 1 ` x[6]~47_combout $end
$var wire 1 a x[6]~48_combout $end
$var wire 1 b x[6]~49_combout $end
$var wire 1 c x[7]~50_combout $end
$var wire 1 d x[7]~51_combout $end
$var wire 1 e x[7]~52_combout $end
$var wire 1 f x[7]~53_combout $end
$var wire 1 g x[7]~54_combout $end
$var wire 1 h x[7]~55_combout $end
$var wire 1 i x[1]~93_combout $end
$var wire 1 j x[1]~58_combout $end
$var wire 1 k x[1]~59_combout $end
$var wire 1 l x[1]~60_combout $end
$var wire 1 m x[1]~61_combout $end
$var wire 1 n x[1]~62_combout $end
$var wire 1 o x[1]~63_combout $end
$var wire 1 p x[1]~91_combout $end
$var wire 1 q x[1]~64_combout $end
$var wire 1 r x[1]~65_combout $end
$var wire 1 s x[1]~66_combout $end
$var wire 1 t x[1]~67_combout $end
$var wire 1 u x[1]~68_combout $end
$var wire 1 v x[2]~69_combout $end
$var wire 1 w x[2]~70_combout $end
$var wire 1 x x[2]~71_combout $end
$var wire 1 y x[2]~72_combout $end
$var wire 1 z x[2]~73_combout $end
$var wire 1 { x[2]~74_combout $end
$var wire 1 | x[2]~75_combout $end
$var wire 1 } x[2]~76_combout $end
$var wire 1 ~ x[3]~94_combout $end
$var wire 1 !! x[3]~95_combout $end
$var wire 1 "! x[3]~80_combout $end
$var wire 1 #! x[3]~81_combout $end
$var wire 1 $! x[3]~82_combout $end
$var wire 1 %! x[3]~83_combout $end
$var wire 1 &! x[3]~84_combout $end
$var wire 1 '! x[3]~85_combout $end
$var wire 1 (! x[3]~86_combout $end
$var wire 1 )! x[3]~87_combout $end
$var wire 1 *! x[3]~88_combout $end
$var wire 1 +! Bin~combout [7] $end
$var wire 1 ,! Bin~combout [6] $end
$var wire 1 -! Bin~combout [5] $end
$var wire 1 .! Bin~combout [4] $end
$var wire 1 /! Bin~combout [3] $end
$var wire 1 0! Bin~combout [2] $end
$var wire 1 1! Bin~combout [1] $end
$var wire 1 2! Bin~combout [0] $end
$upscope $end
$upscope $end
$enddefinitions $end
#0
$dumpvars
b11100001 !
0%
1$
0#
0"
0)
1(
0'
0&
1-
0,
1+
0*
x.
0/
10
x1
12
13
14
05
06
07
08
09
0:
0;
0<
1=
1>
0?
0@
0A
0B
0C
1D
0E
1F
1G
1H
0I
0J
0K
0L
1M
0N
0O
1P
1Q
0R
0S
0T
0U
0V
0W
0X
0Y
1Z
1[
1\
1]
1^
0_
0`
0a
0b
0c
1d
1e
1f
1g
0h
0i
0j
0k
0l
1m
0n
0o
0p
1q
0r
0s
0t
0u
0v
0w
0x
0y
0z
0{
1|
1}
1~
1!!
0"!
0#!
0$!
0%!
0&!
0'!
0(!
0)!
0*!
12!
01!
00!
0/!
0.!
1-!
1,!
1+!
$end
#5000
b11000001 !
b11010001 !
b11011001 !
b11011101 !
b11011111 !
11!
10!
1/!
1.!
0-!
0.
1%!
1s
1o
1W
1O
0}
0[
0D
0>
0~
1r
1p
1n
1k
1j
0Z
0P
19
18
17
15
0!!
1z
1w
0m
1`
1Y
1K
1J
0=
1<
1u
1X
1R
0\
0k
0]
0Q
1;
0|
1x
1L
0+
1Z
1V
0R
1}
1{
1N
1,
0(
1]
0V
1|
1)
1+
0}
1(
0)
0+
#10000
b10011111 !
b10011110 !
b10111110 !
b10111010 !
02!
00!
1-!
0,!
1.
0w
0W
0%!
1}
0o
1_
0^
0X
0O
1@
1>
1#!
1~
0q
0p
1l
0d
1b
0Y
1T
1Q
0M
0K
0J
1I
0H
1?
0<
1:
08
0]
1P
0F
0-
0x
1)!
0s
1a
0Z
1B
1!!
0r
0n
1S
0L
0I
1c
0;
1=
0T
0G
1+
1'
0(
0{
0u
0b
1E
1s
1V
0N
1h
0)!
0S
0$
1u
0V
0,
0'
1%
1)
1&
1,
0)
#15000
b10011010 !
b10011110 !
10!
0-!
0.
1%!
0}
1o
1^
1O
0>
1'!
0#!
0~
1w
1p
1m
0l
1i
0e
1d
1b
1Y
1W
1M
1K
1I
0?
1<
09
18
07
0s
1R
1(!
0!!
1x
1n
1k
0g
1X
1L
0c
0=
0+
1'
0u
1V
1)!
1{
0h
1Z
1N
1*!
0,
1)
0&
1*
#20000
b10011100 !
b10111100 !
b10111000 !
01!
00!
1-!
1.
0%!
1y
1s
0W
1}
0^
0X
1>
0'!
1#!
1~
0w
0p
0m
1l
0i
1e
0d
0b
0Y
0M
0K
0I
1?
0<
19
08
17
0)!
0{
0z
1u
0Z
0(!
1!!
0y
0n
0k
1g
0L
1c
1=
1+
0'
0*!
0|
1{
1z
0o
1h
0N
1,
0}
1|
0s
0O
0*
1&
1}
0u
0R
0+
0V
1+
0,
0)
#25000
b10011000 !
0-!
0.
1'!
0#!
0~
1w
1p
1m
0l
1i
0e
1d
1b
1Y
1W
1M
1K
1I
0?
0>
1<
09
18
07
1(!
0!!
1y
1n
1k
0g
1L
0c
0=
1'
0{
0z
1o
0h
1N
0|
1s
1O
0&
0}
1u
1R
1V
0+
1,
1)
#30000
b10010000 !
b11010000 !
b11010001 !
b11110001 !
12!
0/!
1-!
1,!
1.
1v
0i
0W
1&!
0y
1q
0p
0n
0j
0_
1^
0P
0N
0I
1D
0@
08
17
1l
1e
0d
0b
0Y
0K
1?
1>
0<
1|
1F
1-
1z
0k
0(!
1r
0o
0a
0Q
0O
0f
0B
1=
0L
1\
1}
1G
0'
0|
0s
1b
0R
0E
1+
1$
0}
0u
0V
1'
0%
0+
0,
0)
#35000
b11100001 !
b11100101 !
b11101101 !
b11101100 !
b11001100 !
02!
10!
1/!
0.!
0-!
0.
0v
1}
0D
1A
0'!
1y
0r
1p
1k
0\
1Z
1N
1I
16
0z
0m
0e
0`
0M
1H
0?
0b
1Y
1K
1J
1<
0-
1z
1r
1o
1]
1O
0<
1|
0N
0I
0k
0Z
1L
1+
0'
0|
1s
1R
0}
0O
0o
0]
1(
1}
1u
1V
0R
0s
0+
0(
0V
0u
1+
1,
1)
0)
0,
#40000
b1001100 !
b1001110 !
b1011110 !
b1010110 !
b1110110 !
11!
0/!
1.!
1-!
0+!
1.
1%!
0y
0x
1s
1o
1O
1'!
1"!
0r
0q
1j
1c
1\
1Q
1N
1I
0z
0w
1v
1m
1d
1[
0A
1?
0>
0K
1C
0=
1<
1(!
0F
1)!
1{
1u
0s
1R
1k
1|
1y
1n
1f
0\
0c
1X
0L
1E
0G
1*!
0|
0u
1V
0}
0{
1,
1%
0$
1}
1|
1*
0,
1)
0+
0}
1+
0+
#45000
b11110110 !
b11100110 !
0.!
1+!
0.
0'!
0&!
1~
1{
1z
0v
1r
0l
0j
1e
1P
0N
1M
1L
0?
1>
0:
07
06
05
0"!
1q
0p
0n
1i
0Y
0X
0Q
0J
0I
1F
0C
1=
0(!
1!!
0{
0z
1s
0k
1g
1Q
1N
1\
0<
0r
1Z
0R
0L
1G
0E
0)!
1u
1R
1]
0s
0V
0N
1$
0%
0*!
1V
0u
1,
1(
0)
0*
1)
0,
#50000
b11101110 !
b11001110 !
b1001110 !
b1011110 !
1/!
1.!
0-!
0+!
1.
1#!
0y
1r
0q
1k
1j
0Z
0P
1I
19
18
17
15
0!!
1{
0m
1W
0f
0F
1$!
0{
1z
1s
0r
0]
0=
1<
0|
1h
0G
1u
0s
1}
0(
1&
0$
0u
1,
1+
0,
#55000
b11110 !
b11111 !
b11101 !
b10101 !
12!
01!
0/!
0,!
0.
0i
1)!
0%!
1s
1'!
1&!
0#!
0~
1r
0j
0^
0Q
0I
1@
1:
08
16
05
0$!
1!!
1|
1m
0e
1]
0M
0H
1-
0k
1*!
0)!
1u
0!!
1`
0O
1;
1%!
0}
1n
0g
1f
1N
1(
0o
0*!
0%!
0R
1)!
0h
1*
1,
0+
0s
0)!
0V
1*!
0*
0&
0u
0*!
0)
1*
0,
0*
#60000
b10100 !
b10110 !
02!
11!
1.
1)!
1%!
1y
1o
1R
1O
0-
1*!
0)!
1{
0z
1s
1V
0R
0*!
1u
0V
1*
1)
0*
1,
0)
#65000
b110110 !
b110100 !
01!
1-!
0.
1)!
0%!
0y
0o
0W
1R
0O
1"!
1v
1q
1p
0m
1l
1b
1Y
1Q
1M
1K
1J
1H
1A
1?
0>
0:
18
1*!
0)!
0s
1X
1V
0R
1$!
0r
0n
0N
1j
1L
1I
1c
0@
0\
0;
1'
0*!
0u
0V
1O
1k
0]
1*
1)
1R
1o
0*
0,
0)
0(
1V
1s
1u
1)
1,
#70000
b110000 !
b1110000 !
b1010000 !
00!
0-!
1,!
1.
1%!
1}
0|
0o
1^
0O
1D
0A
0"!
0v
0p
0l
1i
1e
0b
0Y
1W
0Q
0K
0J
0I
0?
1:
09
07
0$!
15
1)!
0}
0s
0`
0R
1g
0f
0c
0{
1z
1r
0X
0j
0L
1=
0%!
0<
1+
0'
1*!
0u
0V
1h
0k
0)!
0+
0*!
1*
0,
0)
1&
0*
#75000
b1011000 !
b11000 !
1/!
0,!
0.
0&!
1#!
1~
1x
0q
1k
1j
1_
0^
1\
1Q
1I
0D
1@
1|
1m
0i
0e
0M
0H
1!!
1{
0r
0k
1`
1]
0g
1f
1}
0I
0h
1(
1+
0&
#80000
b11001 !
b11011 !
b111011 !
b110011 !
12!
11!
0/!
1-!
1.
1"!
1v
0W
1y
0x
1s
1&!
0#!
0~
1r
1q
1p
1n
1k
0j
0_
0\
1N
1D
0:
19
17
05
0m
1l
1b
0[
1Y
1M
1K
1J
1H
1?
1<
1-
1$!
0{
0z
1X
1u
0!!
0r
0k
0]
0=
0n
0N
1j
1L
1I
1R
1'
0|
0s
1k
1V
1,
0(
0}
0u
1)
0+
0,
#85000
b10110011 !
b10110001 !
01!
1+!
0.
1%!
0y
0R
0"!
1w
0q
0p
1n
1e
0d
1a
0`
0Y
0X
0Q
0M
0K
0J
0I
0H
1B
1>
1;
15
1)!
1{
0V
0$!
1x
1r
1o
0f
1N
0j
0L
1E
1\
1*!
0%!
0{
1z
1s
1O
0k
1]
0)
1%
0)!
1|
1u
1R
1*
1(
0*!
1}
1V
1,
0*
1+
1)
#90000
b10100001 !
b10100000 !
b10000000 !
b0 !
b10 !
02!
11!
0.!
0-!
0+!
1.
0w
0v
1)!
0x
0o
0R
0O
0'!
0&!
1~
0z
0l
0e
0a
1Z
0N
1H
0?
0>
09
08
07
06
05
0<
0n
1g
1X
0B
0;
0-
1y
1*!
0s
0V
0|
0g
0b
0X
0\
1=
1h
0E
0)!
0u
0}
0h
0]
1s
0*!
1*
0)
0'
1&
0%
1u
0,
0+
0&
0(
0*
1,
#95000
b1000010 !
b1001010 !
b1001011 !
b1101011 !
12!
1/!
1-!
1,!
0.
1v
1W
1'!
0y
0r
1q
1k
1^
1P
0D
0@
1:
18
15
1!!
1m
1e
1Y
1J
0H
1C
1>
0=
1<
1|
1]
1-
0s
1a
1`
1Q
1f
1E
1=
0<
0k
0Z
1L
1R
1}
1(
0u
0R
1s
0]
1V
1%
1+
0V
1u
0,
0(
1)
0)
1,
#100000
b1101111 !
b11101111 !
b11100111 !
10!
0/!
1+!
1.
1%!
0}
1o
1[
1X
1O
0'!
1y
1\
1N
0:
08
05
1(!
0v
1g
1d
0a
0`
0Y
1M
0J
1H
1F
0C
0=
1)!
0s
1Z
1R
0(!
1=
0L
1G
0E
0+
1*!
0u
1]
1V
0)!
0N
1$
0%
0*!
1*
0,
1(
1)
0*
#105000
b11110111 !
b11110101 !
b10110101 !
b10110100 !
b10110000 !
b10111000 !
02!
01!
00!
1/!
1.!
0,!
0.
0W
1)!
0%!
0y
1x
1s
0o
0O
1}
0|
1_
0^
0[
0X
1@
1#!
1r
0q
1n
1k
1j
1T
1I
1:
19
17
15
1{
0m
1l
0d
1`
0M
0H
1?
0F
0-
1*!
0)!
1z
1u
0s
0R
0}
1a
0\
0Z
1B
0r
1o
0k
0n
1b
0I
1c
0T
0G
1+
0*!
1|
0u
0V
0b
0]
1E
1s
0o
1h
1*
1,
0+
1'
0$
1}
1u
0s
0*
0,
0)
0'
0(
1%
1&
0u
1+
1,
0,
#110000
b111000 !
b101000 !
b101010 !
b101011 !
b101111 !
b100111 !
12!
11!
10!
0/!
0.!
0+!
1.
1"!
1v
1W
1%!
1y
0x
1s
1o
1O
0}
0_
1X
0@
1&!
0#!
0~
1r
1q
1p
1k
0j
0c
1\
1Z
0Q
0P
0B
0:
09
07
05
1$!
0!!
0z
1m
0e
1d
0a
1H
0?
0g
1Y
1K
1J
0=
1;
1-
0$!
1z
0X
1u
0`
0Z
1(!
0r
0k
0h
1]
1Q
0E
0;
1<
1n
1b
1I
1@
1j
1L
0+
0b
1)!
0s
1R
1k
1N
1,
0&
1(
0%
1'
1*!
0u
1V
0'
1*
0,
1)
#115000
b1100111 !
b1100011 !
b1101011 !
00!
1/!
1,!
0.
0%!
1}
0|
0o
1^
0O
0@
1'!
0&!
0"!
1~
0y
1r
0p
0n
0k
0j
0\
0Q
1P
0N
0I
1:
18
15
0l
1e
0d
0]
0K
0H
1C
0)!
0}
1a
1`
0(!
1!!
0{
0z
0r
1Q
1=
0<
1E
1+
0(
0*!
1|
1s
0R
0+
1%
1}
1u
0V
0*
1+
1,
0)
#120000
b1001011 !
b11001011 !
b11011011 !
b11011010 !
b10011010 !
b10011110 !
b10010110 !
02!
10!
0/!
1.!
0-!
0,!
1+!
1.
1w
0v
1i
1%!
0}
0|
1o
1_
0^
1X
1O
1@
0>
1&!
1#!
1y
1r
1p
1j
1\
0P
1N
19
08
17
16
1{
0e
1d
0a
1M
0L
1b
1K
0J
0C
0=
1<
1(!
1g
0-
0y
1k
1)!
1}
1a
1R
1B
0\
0(!
0r
1]
1=
0<
1|
0g
0b
0N
0j
1L
0E
0+
1'
0{
1z
1*!
1b
1V
1E
0]
0)!
0s
0}
0k
1+
1(
0'
0%
0*!
0u
1*
1'
1)
1%
0(
0+
0*
0,
#125000
b10010100 !
b10110100 !
b10110101 !
b11110101 !
b11111101 !
12!
01!
1/!
1-!
1,!
0.
1"!
1v
0i
0W
1)!
1y
1x
1s
0o
0O
0'!
0&!
1r
0p
1n
1j
0_
1^
1Z
1N
0@
09
18
07
06
1l
1e
0d
0b
0Y
0K
1?
1<
1$!
0|
1F
1-
0$!
0X
1*!
1u
0s
0R
0a
1]
0B
0=
0<
0n
1g
0L
1}
1T
1G
0'
0Z
0u
0V
1b
0E
0N
1t
1U
1S
1*
1,
1(
1+
1$
0]
0}
1u
0*!
1V
0,
0)
1'
0%
0(
0+
1,
0*
1)
#130000
b11111001 !
b11111000 !
b10111000 !
b10110000 !
02!
00!
0/!
0,!
1.
0"!
0w
0v
0t
0U
0S
1*!
0%!
1}
1|
0u
0^
0V
1D
1@
1>
1'!
1&!
0#!
0~
0y
0q
1k
0j
0T
0Q
0:
19
17
16
0m
0M
0F
0-
0x
1{
0)!
1a
0`
0g
0f
1B
1\
0!!
0k
1;
1<
1n
1N
0G
1*
1+
0,
0)
0{
0*!
1E
1]
1o
1O
0$
1s
1R
0*
1%
1(
1u
1V
1,
1)
#135000
b10010000 !
b10010001 !
12!
0-!
0.
1w
1i
1W
1#!
1~
1q
1p
1m
0l
0e
1d
1Y
1Q
1M
1K
0?
0>
0<
1:
08
1-
1x
1!!
0r
0n
1f
0N
1L
0\
0;
1=
1{
0o
0O
0]
0s
0R
0(
0u
0V
0,
0)
#140000
b10010101 !
b11010101 !
b11011101 !
b11011100 !
02!
10!
1/!
1,!
1.
0i
1%!
0}
1^
1X
0D
0@
0'!
0&!
0#!
0~
1y
1r
1n
1j
0Q
1N
1I
0:
18
06
1$!
0!!
0m
1e
1J
1H
1F
0-
1)!
0a
1`
1Z
1g
0B
0$!
0{
0z
1O
1;
0=
1<
0%!
0I
1G
0+
1*!
0b
1]
0E
1R
0)!
0O
1$
1V
0*!
0R
1*
0'
1(
0%
0V
1)
0*
0)
#145000
b11111100 !
b11110100 !
0/!
1-!
0.
1'!
1&!
0y
0r
0p
0n
1k
0Z
0N
1:
09
08
0w
1m
1l
1i
0d
1b
0Y
0W
0K
0J
0H
1?
0<
1{
1z
1r
1o
0]
0;
1=
0x
0X
0j
0L
1'
1s
0{
0k
0(
1u
0|
0o
1}
0s
1,
0u
1+
0,
#150000
b11100100 !
b10100100 !
b10000100 !
0.!
0-!
0,!
1.
0'!
0&!
0z
1w
0r
0m
0l
0e
0`
1Z
1H
0G
0?
1>
0:
07
05
1#!
1p
0b
1Y
1Q
1K
1<
1|
1_
0^
0F
0|
1x
0g
0f
1I
1@
1\
0=
1$!
0Z
1j
0}
1`
0$
0'
1}
1{
1O
1B
1]
1k
0+
1|
1R
1E
1o
1+
1(
0}
1V
1s
1%
1u
0+
1)
1,
#155000
b10010100 !
b11010100 !
1.!
1,!
0.
1'!
1&!
1~
1z
0j
1e
1d
1a
1W
1L
0>
1:
18
15
0|
0i
0_
1^
0]
1J
1F
0@
1|
0k
1g
1f
1b
1X
0\
1}
0a
1j
1G
0B
0(
0}
0o
0b
1k
0E
1'
1+
1$
0s
1o
0+
0'
0%
0u
1s
1u
0,
1,
#160000
b1010100 !
b1010000 !
b1110000 !
b1100000 !
00!
0.!
1-!
0+!
1.
1%!
1}
0|
0o
0X
0O
1D
1>
0'!
0&!
0$!
1!!
0~
0z
0w
1v
1m
0d
1a
0W
1P
1N
0M
0H
0:
08
05
0#!
1"!
0q
1b
0K
1C
1=
0<
0f
0F
1)!
0}
0s
0R
1\
0%!
0!!
0x
0{
1n
0b
0Q
1O
0I
1;
0=
1<
1r
0j
1h
0G
1+
1'
1*!
0u
0V
0)!
1|
1o
1R
0k
0+
0'
1&
0$
0*!
1}
1s
1V
1*
0,
0)
1u
0*
1+
1)
1,
#165000
b1100001 !
b100001 !
b10100001 !
b10110001 !
12!
1.!
0,!
1+!
0.
0"!
1w
1'!
1&!
1$!
1{
0r
0m
1l
1j
0a
0P
0L
1E
1?
19
18
17
16
15
0|
0p
0^
1]
0J
0C
1@
0n
0g
0Y
1Q
1=
0<
1-
0$!
1x
1%!
1n
1k
1b
0Q
0=
1<
0}
1r
1a
0`
0j
0E
1B
0o
0h
1%
1(
0%!
0{
1z
1)!
1o
0s
0k
1E
1'
0+
0%
0&
0)!
1|
1*!
1s
0u
1%
0*!
1}
1u
1*
0,
0*
1+
1,
#170000
b10010001 !
b11010001 !
b11000001 !
0.!
0-!
1,!
1.
0&!
0z
0v
0e
0a
1`
1[
1Z
1P
0N
1H
1A
0?
09
08
07
06
05
1#!
1q
1p
1Y
1Q
1K
1J
0<
0|
1^
0]
1F
0@
1(!
1|
1{
0b
1]
0O
1I
1c
0;
1<
0r
0Z
1j
1L
0}
0`
0(
1}
0|
0R
1h
0]
1k
1N
0'
1(
0+
0}
0V
1O
1+
1&
0(
1R
0+
0)
1V
1)
#175000
b1000001 !
b1100001 !
1-!
0+!
0.
0'!
0#!
1"!
0w
1v
0q
1m
0l
1e
0[
0Q
0K
0H
1G
1C
0A
0(!
0n
1a
1`
0F
0B
0x
0{
1r
1n
1g
0j
0I
0E
1;
0c
0o
0h
0G
1$
1|
0s
1o
1h
0k
0%
0&
0$
1}
0u
1s
1&
1u
1+
0,
1,
#180000
b1100011 !
b1101011 !
b1101010 !
b1001010 !
02!
11!
1/!
0-!
1.
0"!
0v
1i
1)!
0o
0R
0O
1&!
1#!
0p
0n
0\
1Q
0N
0D
1:
17
15
0m
1l
0e
1b
0Y
1M
0J
1H
0C
1A
0>
1=
0<
0-
1k
1*!
0V
1(!
0r
0g
0;
0=
1<
1n
1Z
1N
0L
1I
1'
0)!
0s
0h
1R
1]
1*
0)
0*!
0u
1V
0&
1(
0*
0,
1)
#185000
b1011010 !
b1011000 !
b1111000 !
01!
1.!
1-!
0.
1x
1o
0R
1O
0&!
1$!
1z
1v
1m
1j
1d
0a
0`
0Z
0P
0N
0M
0A
1?
18
07
0#!
1q
0i
0b
1Y
1J
0I
1C
0<
1s
0V
1R
0(!
1%!
0|
0n
0k
1f
0]
0Q
0O
1X
1=
0$!
1r
1E
0'
1u
1V
1)!
0}
0o
0R
1Z
0%!
0)
0(
1%
1*!
0s
0V
1]
0)!
1,
1)
0+
0u
0*!
1*
0)
1(
0,
0*
#190000
b1111100 !
b111100 !
b111101 !
b101101 !
b101111 !
12!
11!
10!
0.!
0,!
1.
1W
1%!
0x
1s
1o
1O
1}
1|
1_
0^
1@
1>
1~
0z
0r
0j
1a
1`
1L
0?
1p
1c
0]
1K
0C
1-
0X
1u
0s
0}
0a
0|
0c
1r
0E
1+
0(
0Z
0u
1b
1}
1s
1,
0+
0%
1u
0,
1'
1+
1,
#195000
b100111 !
b111 !
b110 !
02!
0/!
0-!
0.
0v
0W
1y
0r
0q
0p
1n
1j
0_
1\
1N
0:
08
05
0m
0l
0d
0b
0Y
0K
0J
0>
1<
0-
0s
1r
1k
0`
1]
0<
0n
0f
1Z
0j
0L
0\
0'
0u
1s
0]
0k
0N
1(
1u
0,
0(
1,
#200000
b10000110 !
b11000110 !
b11001110 !
b11101110 !
b11101111 !
12!
1/!
1-!
1,!
1+!
1.
1"!
1W
1'!
1#!
0~
0y
0r
1q
1n
1k
1^
1Q
1I
1B
0@
1:
18
16
15
1!!
1m
1e
1d
1[
1M
1>
1|
1]
1F
1`
1-
1X
1(!
0!!
0s
0`
1R
1E
0B
0=
1<
1g
1f
1\
1N
0}
1G
1b
1(
1)!
0u
0b
1V
0E
1%
0+
1$
1'
1*!
0,
0'
1)
0%
1*
#205000
b11101011 !
b1101011 !
b101011 !
b1011 !
00!
0-!
0,!
0+!
0.
0%!
1}
0|
0o
1_
0^
0[
0X
0O
1@
0>
0'!
0"!
0q
0m
0e
0d
0W
0M
1=
0<
0:
19
17
1$!
0F
06
0(!
0n
0f
1a
1`
0)!
0}
1s
0a
0\
0R
0g
0N
0=
1h
0G
1<
1b
1+
0*!
1u
0b
0]
0V
0h
0s
1R
0+
1&
0$
1'
0u
1V
0*
1,
0'
0(
0)
0&
0,
1)
#210000
b11 !
b10000011 !
0/!
1+!
1.
1y
1r
1q
1p
0k
0_
1D
1B
09
08
07
05
1w
1i
1[
1Y
1M
1K
1>
1;
0r
1E
0;
0y
1\
0Z
1j
1)!
0)!
1]
1k
1*!
1%
0*!
1(
1*
0*
#215000
b10000001 !
b10000000 !
b11000000 !
b1000000 !
02!
01!
1,!
0+!
0.
0w
1%!
1x
0R
1'!
0$!
1|
0p
1l
1^
0]
1P
0K
1A
0@
0#!
1~
0`
0[
0Y
0Q
0I
0B
0>
1=
0<
0-
0x
1)!
1{
0V
0%!
1}
1a
1`
1Q
0j
1c
1!!
0\
1Z
0E
0(
0{
1*!
0|
0)!
1b
0k
1]
0)
1+
0%
1|
0}
0*!
1*
1'
1(
1}
0+
0*
1+
#220000
b1100000 !
b1101000 !
b1101010 !
b1101011 !
b101011 !
12!
11!
1/!
1-!
0,!
1.
1v
0i
1W
1s
0'!
1p
1n
1k
0c
1_
0^
0P
1N
0D
1@
1:
18
15
0!!
1m
1d
0b
1Y
0M
1K
1J
0A
1>
0=
1<
0|
0]
1-
0k
1u
1r
0a
0Q
1f
1=
0<
0n
0Z
0N
1L
0s
1R
0}
0'
0(
1s
1b
0R
0u
1V
1,
0+
1u
0V
1'
0,
1)
1,
0)
#225000
b111011 !
b111111 !
b110111 !
10!
0/!
1.!
0.
1%!
1}
1o
0_
1[
1O
1A
0>
1'!
1&!
1"!
0~
1y
0r
1n
1j
1\
1Q
1N
1I
0:
19
17
16
05
1!!
1{
0m
0W
1M
1?
0s
0\
1R
1c
1$!
0!!
0{
1k
1]
0=
1<
1|
0n
1X
0N
0@
1+
0u
0]
1V
0|
0}
1(
1}
0,
0(
1)
0+
1+
#230000
b10110111 !
b10010111 !
b10010101 !
01!
0-!
1+!
1.
1)!
0%!
0y
1s
1W
1#!
0"!
1~
1w
0v
1m
0l
1i
0b
0[
0J
0H
0A
0?
1:
08
1n
1a
0`
1_
0X
1B
1;
15
1*!
0)!
1z
1u
1X
0$!
1!!
1x
0n
0j
0I
0c
0B
1@
0;
1=
1b
1`
1E
0<
0'
0*!
1|
1%!
1{
0k
0O
0E
1B
1*
1,
1'
1%
0}
1)!
0o
0R
1E
0*
0%
1*!
0s
0V
0+
1%
0u
1*
0)
0,
#235000
b10010100 !
b10010000 !
b10011000 !
b10111000 !
b10111010 !
02!
11!
00!
1/!
1-!
0.
0w
0i
0W
0)!
0%!
1s
1}
0X
1>
0'!
0&!
1r
0q
0p
1n
1j
1Z
1P
1N
06
0m
1l
1e
0d
0b
0Y
0M
0K
1?
1<
0-
0x
0*!
1u
0Z
0r
0<
0n
1g
0L
1c
1R
1+
0'
0{
0R
1h
0N
1V
0*
1,
0V
1&
1)
0)
#240000
b11111010 !
b11011010 !
b11011000 !
01!
0-!
1,!
1.
1x
0s
1W
0#!
0!!
0~
1w
1q
1p
0l
1d
1b
1Y
1M
1K
1J
1I
1H
0?
0>
1<
0:
18
1$!
0|
0c
0_
1^
0P
1F
0@
1{
0u
0$!
1%!
1y
1r
1n
1L
0I
1;
0=
0}
0h
0a
0Q
1G
0B
1'
0%!
1)!
0{
0z
1o
1N
0b
0E
0,
0+
0&
1$
0)!
1*!
1|
1s
1O
0'
0%
0*!
1}
1u
1R
1*
1V
0*
1+
1,
1)
#245000
b11001000 !
b11000000 !
b10000000 !
b10100000 !
b10100010 !
11!
0/!
0.!
1-!
0,!
0.
1)!
0y
0x
0o
0W
0R
0O
1&!
1~
0r
0q
0p
0n
1k
0^
1D
1@
09
08
07
05
1z
0w
1m
1l
0e
0`
1[
0M
1>
1b
0Y
0K
0J
0<
0|
0F
1*!
0z
0s
0V
1r
1`
0g
1B
0;
1=
1|
1y
0b
1\
1Z
0j
0L
0}
0G
1'
0|
0u
1s
1b
1E
0)!
1}
1]
0k
0N
1*
0)
0'
0+
0$
0}
1u
0*!
0,
1'
1%
1+
1(
0+
1,
0*
#250000
b10100011 !
b10100111 !
b10110111 !
b10010111 !
b10010101 !
12!
01!
10!
1.!
0-!
1.
1w
1i
1W
0y
0s
1}
1_
0[
0D
0>
1'!
1!!
1{
0l
1a
0`
0Z
1N
1M
0H
1:
19
17
16
15
1#!
1q
1p
0b
1Y
1Q
1K
1I
0=
1<
1-
1x
1X
0{
1z
0u
1`
0\
1%!
1|
1b
1O
0N
0I
1=
0<
0r
1L
1+
0'
1{
0]
1)!
0}
1R
0O
0,
1'
1*!
1V
0R
0(
0+
0V
1*
1)
0)
#255000
b10010100 !
b10010000 !
b10010010 !
02!
11!
00!
0.
0)!
0%!
0x
1s
1}
0_
0X
1D
0-
0*!
0{
1u
0`
1+
0*
1,
