multiplicadores/multiplicador_4bits/simulation/qsim/multiplicador_4bits.msim.vcd
$comment
	File created using the following command:
		vcd file multiplicador_4bits.msim.vcd -direction
$end
$date
	Sat Oct 14 12:32:29 2023
$end
$version
	ModelSim Version 10.1d
$end
$timescale
	1ps
$end
$scope module multiplicador_4bits_vlg_vec_tst $end
$var reg 4 ! ivA [3:0] $end
$var reg 4 " ivB [3:0] $end
$var wire 1 # ovS [8] $end
$var wire 1 $ ovS [7] $end
$var wire 1 % ovS [6] $end
$var wire 1 & ovS [5] $end
$var wire 1 ' ovS [4] $end
$var wire 1 ( ovS [3] $end
$var wire 1 ) ovS [2] $end
$var wire 1 * ovS [1] $end
$var wire 1 + ovS [0] $end
$var wire 1 , sampler $end
$scope module i1 $end
$var wire 1 - gnd $end
$var wire 1 . vcc $end
$var wire 1 / unknown $end
$var tri1 1 0 devclrn $end
$var tri1 1 1 devpor $end
$var tri1 1 2 devoe $end
$var wire 1 3 sum2|Cout~0_combout $end
$var wire 1 4 sum3|Cout~0_combout $end
$var wire 1 5 A0B~0_combout $end
$var wire 1 6 sum1|oS~0_combout $end
$var wire 1 7 sum5|oS~3_combout $end
$var wire 1 8 sum1|Cout~0_combout $end
$var wire 1 9 sum5|oS~2_combout $end
$var wire 1 : sum5|Cout~0_combout $end
$var wire 1 ; sum5|Cout~1_combout $end
$var wire 1 < sum3|oS~0_combout $end
$var wire 1 = sum6|oS~combout $end
$var wire 1 > sum9|oS~0_combout $end
$var wire 1 ? sum6|Cout~0_combout $end
$var wire 1 @ sum7|oS~0_combout $end
$var wire 1 A sum9|Cout~0_combout $end
$var wire 1 B sum9|Cout~1_combout $end
$var wire 1 C sum10|oS~combout $end
$var wire 1 D sum10|Cout~0_combout $end
$var wire 1 E sum8|oS~2_combout $end
$var wire 1 F sum7|Cout~0_combout $end
$var wire 1 G sum11|oS~combout $end
$var wire 1 H sum11|Cout~0_combout $end
$var wire 1 I sum8|Cout~0_combout $end
$var wire 1 J sum12|oS~0_combout $end
$var wire 1 K sum12|Cout~0_combout $end
$var wire 1 L A3B [3] $end
$var wire 1 M A3B [2] $end
$var wire 1 N A3B [1] $end
$var wire 1 O A3B [0] $end
$var wire 1 P A2B [3] $end
$var wire 1 Q A2B [2] $end
$var wire 1 R A2B [1] $end
$var wire 1 S A2B [0] $end
$var wire 1 T A1B [3] $end
$var wire 1 U A1B [2] $end
$var wire 1 V A1B [1] $end
$var wire 1 W A1B [0] $end
$var wire 1 X ivA~combout [3] $end
$var wire 1 Y ivA~combout [2] $end
$var wire 1 Z ivA~combout [1] $end
$var wire 1 [ ivA~combout [0] $end
$var wire 1 \ ivB~combout [3] $end
$var wire 1 ] ivB~combout [2] $end
$var wire 1 ^ ivB~combout [1] $end
$var wire 1 _ ivB~combout [0] $end
$upscope $end
$upscope $end
$enddefinitions $end
#0
$dumpvars
b0 !
b0 "
0+
0*
0)
0(
0'
0&
0%
0$
0#
x,
0-
1.
x/
10
11
12
03
04
05
06
07
08
09
0:
0;
0<
0=
0>
0?
0@
0A
0B
0C
0D
0E
0F
0G
0H
0I
0J
0K
zO
0N
0M
zL
zS
0R
0Q
0P
zW
0V
0U
0T
0[
0Z
0Y
0X
0_
0^
0]
0\
$end
#10000
b1 "
1_
0,
#20000
b11 "
b10 "
0_
1^
1,
#30000
b11 "
1_
0,
#40000
b111 "
b101 "
b100 "
0_
0^
1]
1,
#50000
b101 "
1_
0,
#60000
b111 "
b110 "
0_
1^
1,
#70000
b111 "
1_
0,
#80000
b1111 "
b1011 "
b1001 "
b1000 "
0_
0^
0]
1\
1,
#90000
b1001 "
1_
0,
#100000
b1011 "
b1010 "
0_
1^
1,
#110000
b1011 "
1_
0,
#120000
b1111 "
b1101 "
b1100 "
0_
0^
1]
1,
#130000
b1101 "
1_
0,
#140000
b1111 "
b1110 "
0_
1^
1,
#150000
b1111 "
1_
0,
#160000
b1 !
b111 "
b11 "
b1 "
b0 "
0_
0^
0]
0\
1[
1,
#170000
b1 "
1_
0,
15
1+
#180000
b11 "
b10 "
0_
1^
1,
16
05
1*
0+
#190000
b11 "
1_
0,
15
1+
#200000
b111 "
b101 "
b100 "
0_
0^
1]
1,
06
05
19
0*
0+
1)
#210000
b101 "
1_
0,
15
1+
#220000
b111 "
b110 "
0_
1^
1,
16
05
1*
0+
#230000
b111 "
1_
0,
15
1+
#240000
b1111 "
b1011 "
b1001 "
b1000 "
0_
0^
0]
1\
1,
06
05
09
1>
0*
0+
0)
1(
#250000
b1001 "
1_
0,
15
1+
#260000
b1011 "
b1010 "
0_
1^
1,
16
05
1*
0+
#270000
b1011 "
1_
0,
15
1+
#280000
b1111 "
b1101 "
b1100 "
0_
0^
1]
1,
06
05
19
0*
0+
1)
#290000
b1101 "
1_
0,
15
1+
#300000
b1111 "
b1110 "
0_
1^
1,
16
05
1*
0+
#310000
b1111 "
1_
0,
15
1+
#320000
b11 !
b10 !
b111 "
b11 "
b1 "
b0 "
0_
0^
0]
0\
0[
1Z
1,
06
05
09
0>
0*
0+
0)
0(
#330000
b1 "
1_
0,
16
1*
#340000
b11 "
b10 "
0_
1^
1,
1:
17
06
1V
19
0*
1)
#350000
b11 "
1_
0,
0:
16
1*
#360000
b111 "
b101 "
b100 "
0_
0^
1]
1,
07
06
0V
1U
09
1=
0*
1>
0)
1(
#370000
b101 "
1_
0,
16
1*
#380000
b111 "
b110 "
0_
1^
1,
1:
17
06
1V
19
0*
1)
#390000
b111 "
1_
0,
0:
16
1*
#400000
b1111 "
b1011 "
b1001 "
b1000 "
0_
0^
0]
1\
1,
07
06
0V
0U
1T
09
0=
1C
0*
0>
0)
1'
0(
#410000
b1001 "
1_
0,
16
1*
#420000
b1011 "
b1010 "
0_
1^
1,
1:
17
06
1V
19
0*
1)
#430000
b1011 "
1_
0,
0:
16
1*
#440000
b1111 "
b1101 "
b1100 "
0_
0^
1]
1,
07
06
0V
1U
09
1=
0*
1>
0)
1(
#450000
b1101 "
1_
0,
16
1*
#460000
b1111 "
b1110 "
0_
1^
1,
1:
17
06
1V
19
0*
1)
#470000
b1111 "
1_
0,
0:
16
1*
#480000
b11 !
b111 "
b11 "
b1 "
b0 "
0_
0^
0]
0\
1[
1,
07
06
0V
0U
0T
09
0=
0C
0*
0>
0)
0'
0(
#490000
b1 "
1_
0,
16
15
1*
1+
#500000
b11 "
b10 "
0_
1^
1,
1:
17
05
1V
19
0+
1)
#510000
b11 "
1_
0,
0:
18
06
15
09
13
0*
1+
1A
1=
0)
1>
1(
#520000
b111 "
b101 "
b100 "
0_
0^
1]
1,
08
07
05
0V
1U
19
03
1?
0=
0+
1)
0A
0?
1=
1C
0>
0C
1>
1'
0(
0'
1(
#530000
b101 "
1_
0,
16
15
1*
1+
#540000
b111 "
b110 "
0_
1^
1,
1:
17
05
1V
1;
09
0+
1A
1?
0=
0)
1C
0>
1'
0(
#550000
b111 "
1_
0,
0:
18
06
15
0;
19
13
0*
1+
1)
#560000
b1111 "
b1011 "
b1001 "
b1000 "
0_
0^
0]
1\
1,
08
07
05
0V
0U
09
1T
1>
03
1B
0?
1=
1D
0C
0+
0)
1(
0A
0=
0>
1G
0'
0B
1>
0(
1&
0D
1C
1(
0G
1'
0&
#570000
b1001 "
1_
0,
16
15
1*
1+
#580000
b1011 "
b1010 "
0_
1^
1,
1:
17
05
1V
19
0+
1)
#590000
b1011 "
1_
0,
0:
18
06
15
09
13
0*
1+
1A
1=
0)
1B
0>
1D
0C
0(
1G
0'
1&
#600000
b1111 "
b1101 "
b1100 "
0_
0^
1]
1,
08
07
05
0V
1U
19
03
0B
1?
0=
0+
1)
0A
0?
1=
1>
1B
0D
1C
0>
1(
1D
0C
0G
1'
0(
1G
0'
0&
1&
#610000
b1101 "
1_
0,
16
15
1*
1+
#620000
b1111 "
b1110 "
0_
1^
1,
1:
17
05
1V
1;
09
0+
1A
1?
0=
0)
0B
1C
1>
0C
1'
1(
0'
#630000
b1111 "
1_
0,
0:
18
06
15
0;
19
13
0*
1+
1)
#640000
b111 !
b101 !
b100 !
b111 "
b11 "
b1 "
b0 "
0_
0^
0]
0\
0[
0Z
1Y
1,
08
07
05
0V
0U
09
0T
0>
03
0?
1=
0D
1C
0+
0)
0(
0A
0=
0C
1>
0G
1'
0>
0'
1(
0&
0(
#650000
b1 "
1_
0,
1:
17
19
1)
#660000
b11 "
b10 "
0_
1^
1,
1<
0:
07
1R
1A
1=
09
1>
0)
1(
#670000
b11 "
1_
0,
1:
17
19
1)
#680000
b111 "
b101 "
b100 "
0_
0^
1]
1,
0<
0:
07
0R
1Q
0A
0=
09
1@
0>
1C
0)
0(
1'
#690000
b101 "
1_
0,
1:
17
19
1)
#700000
b111 "
b110 "
0_
1^
1,
1<
0:
07
1R
1A
1=
09
1>
0)
1(
#710000
b111 "
1_
0,
1:
17
19
1)
#720000
b1111 "
b1011 "
b1001 "
b1000 "
0_
0^
0]
1\
1,
0<
0:
07
0R
0Q
1P
0A
0=
09
0@
1G
0>
0C
0)
1&
0(
0'
#730000
b1001 "
1_
0,
1:
17
19
1)
#740000
b1011 "
b1010 "
0_
1^
1,
1<
0:
07
1R
1A
1=
09
1>
0)
1(
#750000
b1011 "
1_
0,
1:
17
19
1)
#760000
b1111 "
b1101 "
b1100 "
0_
0^
1]
1,
0<
0:
07
0R
1Q
0A
0=
09
1@
0>
1C
0)
0(
1'
#770000
b1101 "
1_
0,
1:
17
19
1)
#780000
b1111 "
b1110 "
0_
1^
1,
1<
0:
07
1R
1A
1=
09
1>
0)
1(
#790000
b1111 "
1_
0,
1:
17
19
1)
#800000
b101 !
b111 "
b11 "
b1 "
b0 "
0_
0^
0]
0\
1[
1,
0<
0:
07
0R
0Q
0P
0A
0=
09
0@
0G
0>
0C
0)
0&
0(
0'
#810000
b1 "
1_
0,
1:
17
15
19
1+
1)
#820000
b11 "
b10 "
0_
1^
1,
1<
0:
07
16
05
1R
1A
1=
09
1*
0+
1>
0)
1(
#830000
b11 "
1_
0,
1:
17
15
19
1+
1)
#840000
b111 "
b101 "
b100 "
0_
0^
1]
1,
0<
0:
07
06
05
0R
1Q
1;
09
0;
19
1@
0*
0+
0)
0A
0=
1C
1)
0>
1'
0(
#850000
b101 "
1_
0,
1:
17
15
1;
09
1+
1A
1=
0)
1>
1(
#860000
b111 "
b110 "
0_
1^
1,
1<
0:
07
16
05
1R
0A
1?
0=
0;
19
1*
0+
1F
0C
0>
1A
0?
1=
1)
1G
0F
1C
1>
0'
0(
0G
1&
1'
1(
0&
#870000
b111 "
1_
0,
1:
17
15
1;
09
1+
0A
1?
0=
0)
1F
0C
0>
1G
0'
0(
1&
#880000
b1111 "
b1011 "
b1001 "
b1000 "
0_
0^
0]
1\
1,
0<
0:
07
06
05
0R
0Q
0;
19
1P
1>
0?
09
0F
0@
1H
0G
0*
0+
1)
1(
0H
1G
1J
0)
0&
0J
1&
1%
0%
#890000
b1001 "
1_
0,
1:
17
15
19
1+
1)
#900000
b1011 "
b1010 "
0_
1^
1,
1<
0:
07
16
05
1R
1A
1=
09
1*
0+
1B
0>
0)
1C
0(
1'
#910000
b1011 "
1_
0,
1:
17
15
19
1+
1)
#920000
b1111 "
b1101 "
b1100 "
0_
0^
1]
1,
0<
0:
07
06
05
0R
1Q
1;
09
0;
19
1@
0*
0+
0)
0A
0=
1D
0C
1)
0B
1>
1H
0G
0'
0D
1C
1J
1(
0&
0H
1G
1'
1%
0J
1&
0%
#930000
b1101 "
1_
0,
1:
17
15
1;
09
1+
1A
1=
0)
1B
0>
1D
0C
0(
1H
0G
0'
1J
0&
1%
#940000
b1111 "
b1110 "
0_
1^
1,
1<
0:
07
16
05
1R
0A
1?
0=
0;
19
1*
0+
0B
1F
0D
1C
1>
1A
0?
1=
1)
1B
0F
0>
1'
1(
1D
0C
0H
1G
0(
1H
0G
0J
0'
1&
1J
0&
0%
1%
#950000
b1111 "
1_
0,
1:
17
15
1;
09
1+
0A
1?
0=
0)
0B
1F
0D
1C
1>
0C
1'
1(
0'
#960000
b111 !
b110 !
b111 "
b11 "
b1 "
b0 "
0_
0^
0]
0\
0[
1Z
1,
0<
0:
07
06
05
0R
0Q
0;
19
0P
0>
0?
09
0F
0@
0H
1G
0*
0+
1)
0(
0G
0J
0)
1&
0&
0%
#970000
b1 "
1_
0,
1:
17
16
19
1*
1)
#980000
b11 "
b10 "
0_
1^
1,
1<
06
1R
1V
1A
1=
0*
1>
1(
#990000
b11 "
1_
0,
07
16
13
09
0A
0=
14
1*
0>
1@
0)
1C
0(
1'
