restadores/restador_4bits/simulation/qsim/restador_4bits.msim.vcd
$comment
	File created using the following command:
		vcd file restador_4bits.msim.vcd -direction
$end
$date
	Sat Oct 14 15:47:37 2023
$end
$version
	ModelSim Version 10.1d
$end
$timescale
	1ps
$end
$scope module restador_4bits_vlg_vec_tst $end
$var reg 4 ! ivA [3:0] $end
$var reg 4 " ivB [3:0] $end
$var wire 1 # oSign $end
$var wire 1 $ ovS [3] $end
$var wire 1 % ovS [2] $end
$var wire 1 & ovS [1] $end
$var wire 1 ' ovS [0] $end
$var wire 1 ( sampler $end
$scope module i1 $end
$var wire 1 ) gnd $end
$var wire 1 * vcc $end
$var wire 1 + unknown $end
$var tri1 1 , devclrn $end
$var tri1 1 - devpor $end
$var tri1 1 . devoe $end
$var wire 1 / svX[0]~0_combout $end
$var wire 1 0 S1|sum_1|sum_2|Cout~0_combout $end
$var wire 1 1 S1|sum_2|sum_1|Cout~0_combout $end
$var wire 1 2 S1|sum_2|sum_2|Cout~0_combout $end
$var wire 1 3 S1|sum_1|sum_2|oS~0_combout $end
$var wire 1 4 S2|sum_1|sum_2|oS~2_combout $end
$var wire 1 5 svX[2]~1_combout $end
$var wire 1 6 S2|sum_2|sum_1|oS~combout $end
$var wire 1 7 S2|sum_2|sum_1|Cout~0_combout $end
$var wire 1 8 S2|sum_2|sum_2|oS~combout $end
$var wire 1 9 ivB~combout [3] $end
$var wire 1 : ivB~combout [2] $end
$var wire 1 ; ivB~combout [1] $end
$var wire 1 < ivB~combout [0] $end
$var wire 1 = ivA~combout [3] $end
$var wire 1 > ivA~combout [2] $end
$var wire 1 ? ivA~combout [1] $end
$var wire 1 @ ivA~combout [0] $end
$upscope $end
$upscope $end
$enddefinitions $end
#0
$dumpvars
b0 !
b0 "
1#
0'
0&
0%
0$
x(
0)
1*
x+
1,
1-
1.
0/
10
11
12
13
14
15
16
07
08
0<
0;
0:
09
0@
0?
0>
0=
$end
#1000
b1 "
1<
0(
03
00
1/
04
05
01
1'
06
02
1&
16
14
0#
1%
0%
0&
#2000
b11 "
b10 "
0<
1;
1(
04
0/
0'
1&
#3000
b11 "
1<
0(
14
13
1/
04
1'
0&
1&
#4000
b111 "
b101 "
b100 "
0<
0;
1:
1(
14
10
0/
15
05
17
0'
0&
07
06
18
08
1$
1%
0$
#5000
b101 "
1<
0(
04
03
00
1/
16
14
15
1'
1&
06
0%
0&
1%
#6000
b111 "
b110 "
0<
1;
1(
04
0/
0'
1&
#7000
b111 "
1<
0(
14
13
1/
04
1'
0&
1&
#8000
b1111 "
b1011 "
b1001 "
b1000 "
0<
0;
0:
19
1(
14
10
0/
05
18
15
11
0'
1$
0&
17
16
08
18
0$
0%
1$
#9000
b1001 "
1<
0(
04
03
00
1/
07
06
14
05
01
1'
1&
16
1%
0&
0%
#10000
b1011 "
b1010 "
0<
1;
1(
04
0/
0'
1&
#11000
b1011 "
1<
0(
14
13
1/
04
1'
0&
1&
#12000
b1111 "
b1101 "
b1100 "
0<
0;
1:
1(
14
10
0/
15
05
17
0'
0&
07
06
08
18
0$
1%
1$
#13000
b1101 "
1<
0(
04
03
00
1/
16
14
15
1'
1&
06
0%
0&
1%
#14000
b1111 "
b1110 "
0<
1;
1(
04
0/
0'
1&
#15000
b1111 "
1<
0(
14
13
1/
04
1'
0&
1&
#16000
b1 !
b111 "
b11 "
b1 "
b0 "
0<
0;
0:
09
1@
1(
10
05
08
15
11
16
0$
06
12
0%
16
14
1#
1%
0%
0&
#17000
b1 "
1<
0(
0/
0'
#18000
b11 "
b10 "
0<
1;
1(
03
00
1/
04
05
01
1'
06
02
1&
16
14
0#
1%
0%
0&
#19000
b11 "
1<
0(
04
0/
0'
1&
#20000
b111 "
b101 "
b100 "
0<
0;
1:
1(
14
13
10
1/
15
06
04
05
1'
0&
16
1%
1&
0%
#21000
b101 "
1<
0(
14
0/
06
0'
0&
1%
#22000
b111 "
b110 "
0<
1;
1(
04
03
00
1/
16
14
15
1'
1&
06
0%
0&
1%
#23000
b111 "
1<
0(
04
0/
0'
1&
#24000
b1111 "
b1011 "
b1001 "
b1000 "
0<
0;
0:
19
1(
14
13
10
1/
05
18
16
04
15
11
1'
1$
0&
06
08
0%
1&
0$
1%
#25000
b1001 "
1<
0(
14
0/
17
16
0'
0&
18
0%
1$
#26000
b1011 "
b1010 "
0<
1;
1(
04
03
00
1/
07
06
14
05
01
1'
1&
16
1%
0&
0%
#27000
b1011 "
1<
0(
04
0/
0'
1&
#28000
b1111 "
b1101 "
b1100 "
0<
0;
1:
1(
14
13
10
1/
15
06
04
05
1'
0&
16
1%
1&
0%
#29000
b1101 "
1<
0(
14
0/
06
0'
0&
1%
#30000
b1111 "
b1110 "
0<
1;
1(
04
03
00
1/
16
14
15
1'
1&
06
0%
0&
1%
#31000
b1111 "
1<
0(
04
0/
0'
1&
#32000
b11 !
b10 !
b111 "
b11 "
b1 "
b0 "
0<
0;
0:
09
0@
1?
1(
10
05
08
15
11
16
0$
06
12
0%
16
1#
1%
0%
#33000
b1 "
1<
0(
13
1/
14
1'
0&
#34000
b11 "
b10 "
0<
1;
1(
0/
0'
#35000
b11 "
1<
0(
03
00
1/
04
05
01
1'
06
02
1&
16
14
0#
1%
0%
0&
#36000
b111 "
b101 "
b100 "
0<
0;
1:
1(
04
10
0/
15
05
06
0'
1&
16
1%
0%
#37000
b101 "
1<
0(
14
13
1/
04
1'
0&
1&
#38000
b111 "
b110 "
0<
1;
1(
14
0/
06
0'
0&
1%
#39000
b111 "
1<
0(
04
03
00
1/
16
14
15
1'
1&
06
0%
0&
1%
#40000
b1111 "
b1011 "
b1001 "
b1000 "
0<
0;
0:
19
1(
04
10
0/
05
18
15
11
16
0'
1$
1&
06
08
0%
0$
1%
#41000
b1001 "
1<
0(
14
13
1/
04
1'
0&
1&
#42000
b1011 "
b1010 "
0<
1;
1(
14
0/
17
16
0'
0&
18
0%
1$
#43000
b1011 "
1<
0(
04
03
00
1/
07
06
14
05
01
1'
1&
16
1%
0&
0%
#44000
b1111 "
b1101 "
b1100 "
0<
0;
1:
1(
04
10
0/
15
05
06
0'
1&
16
1%
0%
#45000
b1101 "
1<
0(
14
13
1/
04
1'
0&
1&
#46000
b1111 "
b1110 "
0<
1;
1(
14
0/
06
0'
0&
1%
#47000
b1111 "
1<
0(
04
03
00
1/
16
14
15
1'
1&
06
0%
0&
1%
#48000
b11 !
b111 "
b11 "
b1 "
b0 "
0<
0;
0:
09
1@
1(
10
05
08
15
11
16
0$
06
12
0%
16
04
1#
1%
0%
1&
#49000
b1 "
1<
0(
0/
0'
#50000
b11 "
b10 "
0<
1;
1(
13
1/
14
1'
0&
#51000
b11 "
1<
0(
0/
0'
#52000
b111 "
b101 "
b100 "
0<
0;
1:
1(
03
1/
05
01
06
04
02
1'
16
14
0#
1%
1&
0%
0&
#53000
b101 "
1<
0(
04
0/
0'
1&
#54000
b111 "
b110 "
0<
1;
1(
14
13
1/
04
1'
0&
1&
#55000
b111 "
1<
0(
14
0/
06
0'
0&
1%
#56000
b1111 "
b1011 "
b1001 "
b1000 "
0<
0;
0:
19
1(
04
03
1/
15
11
18
14
08
1'
1$
1&
0$
0&
#57000
b1001 "
1<
0(
04
0/
0'
1&
#58000
b1011 "
b1010 "
0<
1;
1(
14
13
1/
04
1'
0&
1&
#59000
b1011 "
1<
0(
14
0/
17
16
0'
0&
18
0%
1$
#60000
b1111 "
b1101 "
b1100 "
0<
0;
1:
1(
04
03
1/
05
01
07
14
08
1'
1&
18
0$
0&
1$
#61000
b1101 "
1<
0(
04
0/
0'
1&
#62000
b1111 "
b1110 "
0<
1;
1(
14
13
1/
04
1'
0&
1&
#63000
b1111 "
1<
0(
14
0/
06
0'
0&
1%
#64000
b111 !
b101 !
b100 !
b111 "
b11 "
b1 "
b0 "
0<
0;
0:
09
0@
0?
1>
1(
11
08
12
0$
1#
#65000
b1 "
1<
0(
03
00
1/
04
15
1'
16
1&
0%
#66000
b11 "
b10 "
0<
1;
1(
0/
0'
#67000
b11 "
1<
0(
13
1/
14
1'
0&
#68000
b111 "
b101 "
b100 "
0<
0;
1:
1(
10
0/
05
01
15
11
06
02
0'
17
16
12
0#
1%
18
07
1#
0%
08
1$
0$
#69000
b101 "
1<
0(
03
00
1/
04
05
01
1'
06
02
1&
16
14
0#
1%
0%
0&
#70000
b111 "
b110 "
0<
1;
1(
04
0/
0'
1&
#71000
b111 "
1<
0(
14
13
1/
04
1'
0&
1&
#72000
b1111 "
b1011 "
b1001 "
b1000 "
0<
0;
0:
19
1(
14
10
0/
15
11
18
05
17
08
0'
1$
0&
07
06
18
0$
08
1$
1%
0$
#73000
b1001 "
1<
0(
04
03
00
1/
16
14
15
1'
1&
06
0%
0&
1%
#74000
b1011 "
b1010 "
0<
1;
1(
04
0/
0'
1&
#75000
b1011 "
1<
0(
14
13
1/
04
1'
0&
1&
#76000
b1111 "
b1101 "
b1100 "
0<
0;
1:
1(
14
10
0/
05
01
15
11
18
0'
0&
17
16
08
1$
18
0$
0%
1$
#77000
b1101 "
1<
0(
04
03
00
1/
07
06
14
05
01
1'
1&
16
1%
0&
0%
#78000
b1111 "
b1110 "
0<
1;
1(
04
0/
0'
1&
#79000
b1111 "
1<
0(
14
13
1/
04
1'
0&
1&
#80000
b101 !
b111 "
b11 "
b1 "
b0 "
0<
0;
0:
09
1@
1(
10
15
11
08
05
06
12
0$
14
1#
1%
0&
#81000
b1 "
1<
0(
0/
0'
#82000
b11 "
b10 "
0<
1;
1(
03
00
1/
04
15
1'
16
1&
0%
#83000
b11 "
1<
0(
0/
0'
#84000
b111 "
b101 "
b100 "
0<
0;
1:
1(
13
10
1/
05
01
06
14
15
11
02
1'
12
04
0#
1%
0&
16
14
1#
1&
0%
0&
#85000
b101 "
1<
0(
0/
0'
#86000
b111 "
b110 "
0<
1;
1(
03
00
1/
04
05
01
1'
06
02
1&
16
14
0#
1%
0%
0&
#87000
b111 "
1<
0(
04
0/
0'
1&
#88000
b1111 "
b1011 "
b1001 "
b1000 "
0<
0;
0:
19
1(
14
13
10
1/
15
11
18
06
04
05
08
1'
1$
0&
16
0$
1%
1&
0%
#89000
b1001 "
1<
0(
14
0/
06
0'
0&
1%
#90000
b1011 "
b1010 "
0<
1;
1(
04
03
00
1/
16
14
15
1'
1&
06
0%
0&
1%
#91000
b1011 "
1<
0(
04
0/
0'
1&
#92000
b1111 "
b1101 "
b1100 "
0<
0;
1:
1(
14
13
10
1/
05
01
16
04
15
11
18
1'
0&
06
08
1$
0%
1&
0$
1%
#93000
b1101 "
1<
0(
14
0/
17
16
0'
0&
18
0%
1$
#94000
b1111 "
b1110 "
0<
1;
1(
04
03
00
1/
07
06
14
05
01
1'
1&
16
1%
0&
0%
#95000
b1111 "
1<
0(
04
0/
0'
1&
#96000
b111 !
b110 !
b111 "
b11 "
b1 "
b0 "
0<
0;
0:
09
0@
1?
1(
10
15
11
08
05
06
12
0$
1#
1%
#97000
b1 "
1<
0(
13
1/
14
1'
0&
#98000
b11 "
b10 "
0<
1;
1(
0/
0'
#99000
b11 "
1<
0(
03
00
1/
04
15
1'
16
1&
0%
#100000
b111 "
b101 "
b100 "
0<
0;
1:
1(
10
0/
05
01
15
11
06
02
0'
12
0#
1%
16
1#
0%
#101000
b101 "
1<
0(
13
1/
14
1'
0&
#102000
b111 "
b110 "
0<
1;
1(
0/
0'
#103000
b111 "
1<
0(
03
00
1/
04
05
01
1'
06
02
1&
16
14
0#
1%
0%
0&
#104000
b1111 "
b1011 "
b1001 "
b1000 "
0<
0;
0:
19
1(
04
10
0/
15
11
18
05
06
08
0'
1$
1&
16
0$
1%
0%
#105000
b1001 "
1<
0(
14
13
1/
04
1'
0&
1&
#106000
b1011 "
b1010 "
0<
1;
1(
14
0/
06
0'
0&
1%
#107000
b1011 "
1<
0(
04
03
00
1/
16
14
15
1'
1&
06
0%
0&
1%
#108000
b1111 "
b1101 "
b1100 "
0<
0;
1:
1(
04
10
0/
05
01
15
11
16
18
0'
1&
06
08
1$
0%
0$
1%
#109000
b1101 "
1<
0(
14
13
1/
04
1'
0&
1&
#110000
b1111 "
b1110 "
0<
1;
1(
14
0/
17
16
0'
0&
18
0%
1$
#111000
b1111 "
1<
0(
04
03
00
1/
07
06
14
05
01
1'
1&
16
1%
0&
0%
#112000
b111 !
b111 "
b11 "
b1 "
b0 "
0<
0;
0:
09
1@
1(
10
15
11
08
05
06
12
0$
04
1#
1%
1&
#113000
b1 "
1<
0(
0/
0'
#114000
b11 "
b10 "
0<
1;
1(
13
1/
14
1'
0&
#115000
b11 "
1<
0(
0/
0'
#116000
b111 "
b101 "
b100 "
0<
0;
1:
1(
03
1/
15
16
04
1'
0%
1&
#117000
b101 "
1<
0(
0/
0'
#118000
b111 "
b110 "
0<
1;
1(
13
1/
14
1'
0&
#119000
b111 "
1<
0(
0/
0'
#120000
b1111 "
b1011 "
b1001 "
b1000 "
0<
0;
0:
19
1(
03
1/
05
02
1'
0#
#121000
b1001 "
1<
0(
04
0/
0'
1&
#122000
b1011 "
b1010 "
0<
1;
1(
14
13
1/
04
1'
0&
1&
#123000
b1011 "
1<
0(
14
0/
06
0'
0&
1%
#124000
b1111 "
b1101 "
b1100 "
0<
0;
1:
1(
04
03
1/
15
14
1'
1&
0&
#125000
b1101 "
1<
0(
04
0/
0'
1&
#126000
b1111 "
b1110 "
0<
1;
1(
14
13
1/
04
1'
0&
1&
#127000
b1111 "
1<
0(
14
0/
17
16
0'
0&
18
0%
1$
#128000
b1111 !
b1011 !
b1001 !
b1000 !
b111 "
b11 "
b1 "
b0 "
0<
0;
0:
09
0@
0?
0>
1=
1(
08
12
07
0$
1#
18
1$
#129000
b1 "
1<
0(
03
00
1/
04
05
01
1'
06
08
1&
0$
1%
#130000
b11 "
b10 "
0<
1;
1(
0/
0'
#131000
b11 "
1<
0(
13
1/
14
1'
0&
#132000
b111 "
b101 "
b100 "
0<
0;
1:
1(
10
0/
15
05
16
0'
06
0%
1%
#133000
b101 "
1<
0(
03
00
1/
04
15
1'
16
1&
0%
#134000
b111 "
b110 "
0<
1;
1(
0/
0'
#135000
b111 "
1<
0(
13
1/
14
1'
0&
#136000
b1111 "
b1011 "
b1001 "
b1000 "
0<
0;
0:
19
1(
10
0/
05
02
15
11
06
0'
0#
17
16
12
1%
18
07
1#
0%
08
1$
0$
#137000
b1001 "
1<
0(
03
00
1/
04
05
01
1'
06
02
1&
16
14
0#
1%
0%
0&
#138000
b1011 "
b1010 "
0<
1;
1(
04
0/
0'
1&
#139000
b1011 "
1<
0(
14
13
1/
04
1'
0&
1&
#140000
b1111 "
b1101 "
b1100 "
0<
0;
1:
1(
14
10
0/
15
05
17
0'
0&
07
06
18
08
1$
1%
0$
#141000
b1101 "
1<
0(
04
03
00
1/
16
14
15
1'
1&
06
0%
0&
1%
#142000
b1111 "
b1110 "
0<
1;
1(
04
0/
0'
1&
#143000
b1111 "
1<
0(
14
13
1/
04
1'
0&
1&
#144000
b1001 !
b111 "
b11 "
b1 "
b0 "
0<
0;
0:
09
1@
1(
10
05
12
15
11
14
1#
16
18
0&
1$
0%
#145000
b1 "
1<
0(
0/
0'
#146000
b11 "
b10 "
0<
1;
1(
03
00
1/
04
05
01
1'
06
08
1&
0$
1%
#147000
b11 "
1<
0(
0/
0'
#148000
b111 "
b101 "
b100 "
0<
0;
1:
1(
13
10
1/
15
16
14
05
1'
06
0%
0&
1%
#149000
b101 "
1<
0(
0/
0'
#150000
b111 "
b110 "
0<
1;
1(
03
00
1/
04
15
1'
16
1&
0%
#151000
b111 "
1<
0(
0/
0'
#152000
b1111 "
b1011 "
b1001 "
b1000 "
0<
0;
0:
19
1(
13
10
1/
05
02
15
11
1'
0#
06
12
16
14
1#
1%
0%
0&
#153000
b1001 "
1<
0(
0/
0'
#154000
b1011 "
b1010 "
0<
1;
1(
03
00
1/
04
05
01
1'
06
02
1&
16
14
0#
1%
0%
0&
#155000
b1011 "
1<
0(
04
0/
0'
1&
#156000
b1111 "
b1101 "
b1100 "
0<
0;
1:
1(
14
13
10
1/
15
06
04
05
1'
0&
16
1%
1&
0%
#157000
b1101 "
1<
0(
14
0/
06
0'
0&
1%
#158000
b1111 "
b1110 "
0<
1;
1(
04
03
00
1/
16
14
15
1'
1&
06
0%
0&
1%
#159000
b1111 "
1<
0(
04
0/
0'
1&
#160000
b1011 !
b1010 !
b111 "
b11 "
b1 "
b0 "
0<
0;
0:
09
0@
1?
1(
10
05
12
15
11
1#
16
18
1$
0%
#161000
b1 "
1<
0(
13
1/
14
1'
0&
#162000
b11 "
b10 "
0<
1;
1(
0/
0'
#163000
b11 "
1<
0(
03
00
1/
04
05
01
1'
06
08
1&
0$
1%
#164000
b111 "
b101 "
b100 "
0<
0;
1:
1(
10
0/
15
05
16
0'
06
0%
1%
#165000
b101 "
1<
0(
13
1/
14
1'
0&
#166000
b111 "
b110 "
0<
1;
1(
0/
0'
#167000
b111 "
1<
0(
03
00
1/
04
15
1'
16
1&
0%
#168000
b1111 "
b1011 "
b1001 "
b1000 "
0<
0;
0:
19
1(
10
0/
05
02
15
11
0'
0#
06
12
16
1#
1%
0%
#169000
b1001 "
1<
0(
13
1/
14
1'
0&
#170000
b1011 "
b1010 "
0<
1;
1(
0/
0'
#171000
b1011 "
1<
0(
03
00
1/
04
05
01
1'
06
02
1&
16
14
0#
1%
0%
0&
#172000
b1111 "
b1101 "
b1100 "
0<
0;
1:
1(
04
10
0/
15
05
06
0'
1&
16
1%
0%
#173000
b1101 "
1<
0(
14
13
1/
04
1'
0&
1&
#174000
b1111 "
b1110 "
0<
1;
1(
14
0/
06
0'
0&
1%
#175000
b1111 "
1<
0(
04
03
00
1/
16
14
15
1'
1&
06
0%
0&
1%
#176000
b1011 !
b111 "
b11 "
b1 "
b0 "
0<
0;
0:
09
1@
1(
10
05
12
15
11
04
1#
16
18
1&
1$
0%
#177000
b1 "
1<
0(
0/
0'
#178000
b11 "
b10 "
0<
1;
1(
13
1/
14
1'
0&
#179000
b11 "
1<
0(
0/
0'
#180000
b111 "
b101 "
b100 "
0<
0;
1:
1(
03
1/
05
01
06
04
08
1'
0$
1%
1&
#181000
b101 "
1<
0(
0/
0'
#182000
b111 "
b110 "
0<
1;
1(
13
1/
14
1'
0&
#183000
b111 "
1<
0(
0/
0'
#184000
b1111 "
b1011 "
b1001 "
b1000 "
0<
0;
0:
19
1(
03
1/
15
11
02
12
1'
0#
16
04
1#
0%
1&
#185000
b1001 "
1<
0(
0/
0'
#186000
b1011 "
b1010 "
0<
1;
1(
13
1/
14
1'
0&
#187000
b1011 "
1<
0(
0/
0'
#188000
b1111 "
b1101 "
b1100 "
0<
0;
1:
1(
03
1/
05
01
06
04
02
1'
16
14
0#
1%
1&
0%
0&
#189000
b1101 "
1<
0(
04
0/
0'
1&
#190000
b1111 "
b1110 "
0<
1;
1(
14
13
1/
04
1'
0&
1&
#191000
b1111 "
1<
0(
14
0/
06
0'
0&
1%
#192000
b1111 !
b1101 !
b1100 !
b111 "
b11 "
b1 "
b0 "
0<
0;
0:
09
0@
0?
1>
1(
11
12
18
1#
1$
#193000
b1 "
1<
0(
03
00
1/
04
15
1'
16
1&
0%
#194000
b11 "
b10 "
0<
1;
1(
0/
0'
#195000
b11 "
1<
0(
13
1/
14
1'
0&
#196000
b111 "
b101 "
b100 "
0<
0;
1:
1(
10
0/
05
01
15
11
06
08
0'
16
18
0$
1%
1$
0%
#197000
b101 "
1<
0(
03
00
1/
04
05
01
1'
06
08
1&
0$
1%
#198000
b111 "
b110 "
0<
1;
1(
0/
0'
#199000
b111 "
1<
0(
13
1/
14
1'
0&
#200000
b1111 "
b1011 "
b1001 "
b1000 "
0<
0;
0:
19
1(
10
0/
15
11
02
05
17
16
12
0'
0#
07
06
18
1#
0%
08
1$
1%
0$
#201000
b1001 "
1<
0(
03
00
1/
04
15
1'
16
1&
0%
#202000
b1011 "
b1010 "
0<
1;
1(
0/
0'
#203000
b1011 "
1<
0(
13
1/
14
1'
0&
#204000
b1111 "
b1101 "
b1100 "
0<
0;
1:
1(
10
0/
05
01
15
11
06
02
0'
17
16
12
0#
1%
18
07
1#
0%
08
1$
0$
#205000
b1101 "
1<
0(
03
00
1/
04
05
01
1'
06
02
1&
16
14
0#
1%
0%
0&
#206000
b1111 "
b1110 "
0<
1;
1(
04
0/
0'
1&
#207000
b1111 "
1<
0(
14
13
1/
04
1'
0&
1&
#208000
b1101 !
b111 "
b11 "
b1 "
b0 "
0<
0;
0:
09
1@
1(
10
15
11
12
05
18
14
1#
06
1$
0&
1%
#209000
b1 "
1<
0(
0/
0'
#210000
b11 "
b10 "
0<
1;
1(
03
00
1/
04
15
1'
16
1&
0%
#211000
b11 "
1<
0(
0/
0'
#212000
b111 "
b101 "
b100 "
0<
0;
1:
1(
13
10
1/
05
01
06
14
15
11
08
1'
16
18
0$
1%
0&
1$
0%
#213000
b101 "
1<
0(
0/
0'
#214000
b111 "
b110 "
0<
1;
1(
03
00
1/
04
05
01
1'
06
08
1&
0$
1%
#215000
b111 "
1<
0(
0/
0'
#216000
b1111 "
b1011 "
b1001 "
b1000 "
0<
0;
0:
19
1(
13
10
1/
15
11
02
05
12
1'
0#
14
1#
0&
#217000
b1001 "
1<
0(
0/
0'
#218000
b1011 "
b1010 "
0<
1;
1(
03
00
1/
04
15
1'
16
1&
0%
#219000
b1011 "
1<
0(
0/
0'
#220000
b1111 "
b1101 "
b1100 "
0<
0;
1:
1(
13
10
1/
05
01
06
14
15
11
02
1'
12
04
0#
1%
0&
16
14
1#
1&
0%
0&
#221000
b1101 "
1<
0(
0/
0'
#222000
b1111 "
b1110 "
0<
1;
1(
03
00
1/
04
05
01
1'
06
02
1&
16
14
0#
1%
0%
0&
#223000
b1111 "
1<
0(
04
0/
0'
1&
#224000
b1111 !
b1110 !
b111 "
b11 "
b1 "
b0 "
0<
0;
0:
09
0@
1?
1(
10
15
11
12
05
18
1#
06
1$
1%
#225000
b1 "
1<
0(
13
1/
14
1'
0&
#226000
b11 "
b10 "
0<
1;
1(
0/
0'
#227000
b11 "
1<
0(
03
00
1/
04
15
1'
16
1&
0%
#228000
b111 "
b101 "
b100 "
0<
0;
1:
1(
10
0/
05
01
15
11
06
08
0'
16
18
0$
1%
1$
0%
#229000
b101 "
1<
0(
13
1/
14
1'
0&
#230000
b111 "
b110 "
0<
1;
1(
0/
0'
#231000
b111 "
1<
0(
03
00
1/
04
05
01
1'
06
08
1&
0$
1%
#232000
b1111 "
b1011 "
b1001 "
b1000 "
0<
0;
0:
19
1(
10
0/
15
11
02
05
12
0'
0#
1#
#233000
b1001 "
1<
0(
13
1/
14
1'
0&
#234000
b1011 "
b1010 "
0<
1;
1(
0/
0'
#235000
b1011 "
1<
0(
03
00
1/
04
15
1'
16
1&
0%
#236000
b1111 "
b1101 "
b1100 "
0<
0;
1:
1(
10
0/
05
01
15
11
06
02
0'
12
0#
1%
16
1#
0%
#237000
b1101 "
1<
0(
13
1/
14
1'
0&
#238000
b1111 "
b1110 "
0<
1;
1(
0/
0'
#239000
b1111 "
1<
0(
03
00
1/
04
05
01
1'
06
02
1&
16
14
0#
1%
0%
0&
#240000
b1111 !
b111 "
b11 "
b1 "
b0 "
0<
0;
0:
09
1@
1(
10
15
11
12
05
18
04
1#
06
1$
1&
1%
#241000
b1 "
1<
0(
0/
0'
#242000
b11 "
b10 "
0<
1;
1(
13
1/
14
1'
0&
#243000
b11 "
1<
0(
0/
0'
#244000
b111 "
b101 "
b100 "
0<
0;
1:
1(
03
1/
15
16
04
1'
0%
1&
#245000
b101 "
1<
0(
0/
0'
#246000
b111 "
b110 "
0<
1;
1(
13
1/
14
1'
0&
#247000
b111 "
1<
0(
0/
0'
#248000
b1111 "
b1011 "
b1001 "
b1000 "
0<
0;
0:
19
1(
03
1/
05
08
06
04
1'
0$
1%
1&
#249000
b1001 "
1<
0(
0/
0'
#250000
b1011 "
b1010 "
0<
1;
1(
13
1/
14
1'
0&
#251000
b1011 "
1<
0(
0/
0'
#252000
b1111 "
b1101 "
b1100 "
0<
0;
1:
1(
03
1/
15
16
04
1'
0%
1&
#253000
b1101 "
1<
0(
0/
0'
#254000
b1111 "
b1110 "
0<
1;
1(
13
1/
14
1'
0&
#255000
b1111 "
1<
0(
0/
0'
#256000
b111 !
b11 !
b1 !
b0 !
b111 "
b11 "
b1 "
b0 "
0<
0;
0:
09
0@
0?
0>
0=
1(
#257000
b1 "
1<
0(
03
00
1/
04
05
01
1'
06
02
1&
16
14
0#
1%
0%
0&
#258000
b11 "
b10 "
0<
1;
1(
04
0/
0'
1&
#259000
b11 "
1<
0(
14
13
1/
04
1'
0&
1&
#260000
b111 "
b101 "
b100 "
0<
0;
1:
1(
14
10
0/
15
05
17
0'
0&
07
06
18
08
1$
1%
0$
#261000
b101 "
1<
0(
04
03
00
1/
16
14
15
1'
1&
06
0%
0&
1%
#262000
b111 "
b110 "
0<
1;
1(
04
0/
0'
1&
#263000
b111 "
1<
0(
14
13
1/
04
1'
0&
1&
#264000
b1111 "
b1011 "
b1001 "
b1000 "
0<
0;
0:
19
1(
14
10
0/
05
18
15
11
0'
1$
0&
17
16
08
18
0$
0%
1$
#265000
b1001 "
1<
0(
04
03
00
1/
07
06
14
05
01
1'
1&
16
1%
0&
0%
#266000
b1011 "
b1010 "
0<
1;
1(
04
0/
0'
1&
#267000
b1011 "
1<
0(
14
13
1/
04
1'
0&
1&
#268000
b1111 "
b1101 "
b1100 "
0<
0;
1:
1(
14
10
0/
15
05
17
0'
0&
07
06
08
18
0$
1%
1$
#269000
b1101 "
1<
0(
04
03
00
1/
16
14
15
1'
1&
06
0%
0&
1%
#270000
b1111 "
b1110 "
0<
1;
1(
04
0/
0'
1&
#271000
b1111 "
1<
0(
14
13
1/
04
1'
0&
1&
#272000
b1 !
b111 "
b11 "
b1 "
b0 "
0<
0;
0:
09
1@
1(
10
05
08
15
11
16
0$
06
12
0%
16
14
1#
1%
0%
0&
#273000
b1 "
1<
0(
0/
0'
#274000
b11 "
b10 "
0<
1;
1(
03
00
1/
04
05
01
1'
06
02
1&
16
14
0#
1%
0%
0&
#275000
b11 "
1<
0(
04
0/
0'
1&
#276000
b111 "
b101 "
b100 "
0<
0;
1:
1(
14
13
10
1/
15
06
04
05
1'
0&
16
1%
1&
0%
#277000
b101 "
1<
0(
14
0/
06
0'
0&
1%
#278000
b111 "
b110 "
0<
1;
1(
04
03
00
1/
16
14
15
1'
1&
06
0%
0&
1%
#279000
b111 "
1<
0(
04
0/
0'
1&
#280000
b1111 "
b1011 "
b1001 "
b1000 "
0<
0;
0:
19
1(
14
13
10
1/
05
18
16
04
15
11
1'
1$
0&
06
08
0%
1&
0$
1%
#281000
b1001 "
1<
0(
14
0/
17
16
0'
0&
18
0%
1$
#282000
b1011 "
b1010 "
0<
1;
1(
04
03
00
1/
07
06
14
05
01
1'
1&
16
1%
0&
0%
#283000
b1011 "
1<
0(
04
0/
0'
1&
#284000
b1111 "
b1101 "
b1100 "
0<
0;
1:
1(
14
13
10
1/
15
06
04
05
1'
0&
16
1%
1&
0%
#285000
b1101 "
1<
0(
14
0/
06
0'
0&
1%
#286000
b1111 "
b1110 "
0<
1;
1(
04
03
00
1/
16
14
15
1'
1&
06
0%
0&
1%
#287000
b1111 "
1<
0(
04
0/
0'
1&
#288000
b11 !
b10 !
b111 "
b11 "
b1 "
b0 "
0<
0;
0:
09
0@
1?
1(
10
05
08
15
11
16
0$
06
12
0%
16
1#
1%
0%
#289000
b1 "
1<
0(
13
1/
14
1'
0&
#290000
b11 "
b10 "
0<
1;
1(
0/
0'
#291000
b11 "
1<
0(
03
00
1/
04
05
01
1'
06
02
1&
16
14
0#
1%
0%
0&
#292000
b111 "
b101 "
b100 "
0<
0;
1:
1(
04
10
0/
15
05
06
0'
1&
16
1%
0%
#293000
b101 "
1<
0(
14
13
1/
04
1'
0&
1&
#294000
b111 "
b110 "
0<
1;
1(
14
0/
06
0'
0&
1%
#295000
b111 "
1<
0(
04
03
00
1/
16
14
15
1'
1&
06
0%
0&
1%
#296000
b1111 "
b1011 "
b1001 "
b1000 "
0<
0;
0:
19
1(
04
10
0/
05
18
15
11
16
0'
1$
1&
06
08
0%
0$
1%
#297000
b1001 "
1<
0(
14
13
1/
04
1'
0&
1&
#298000
b1011 "
b1010 "
0<
1;
1(
14
0/
17
16
0'
0&
18
0%
1$
#299000
b1011 "
1<
0(
04
03
00
1/
07
06
14
05
01
1'
1&
16
1%
0&
0%
#300000
b1111 "
b1101 "
b1100 "
0<
0;
1:
1(
04
10
0/
15
05
06
0'
1&
16
1%
0%
#301000
b1101 "
1<
0(
14
13
1/
04
1'
0&
1&
#302000
b1111 "
b1110 "
0<
1;
1(
14
0/
06
0'
0&
1%
#303000
b1111 "
1<
0(
04
03
00
1/
16
14
15
1'
1&
06
0%
0&
1%
#304000
b11 !
b111 "
b11 "
b1 "
b0 "
0<
0;
0:
09
1@
1(
10
05
08
15
11
16
0$
06
12
0%
16
04
1#
1%
0%
1&
#305000
b1 "
1<
0(
0/
0'
#306000
b11 "
b10 "
0<
1;
1(
13
1/
14
1'
0&
#307000
b11 "
1<
0(
0/
0'
#308000
b111 "
b101 "
b100 "
0<
0;
1:
1(
03
1/
05
01
06
04
02
1'
16
14
0#
1%
1&
0%
0&
#309000
b101 "
1<
0(
04
0/
0'
1&
#310000
b111 "
b110 "
0<
1;
1(
14
13
1/
04
1'
0&
1&
#311000
b111 "
1<
0(
14
0/
06
0'
0&
1%
#312000
b1111 "
b1011 "
b1001 "
b1000 "
0<
0;
0:
19
1(
04
03
1/
15
11
18
14
08
1'
1$
1&
0$
0&
#313000
b1001 "
1<
0(
04
0/
0'
1&
