restadores/restador_6bits/simulation/qsim/restador_6bits.msim.vcd
$comment
	File created using the following command:
		vcd file restador_6bits.msim.vcd -direction
$end
$date
	Thu Oct 12 21:50:22 2023
$end
$version
	ModelSim Version 10.1d
$end
$timescale
	1ps
$end
$scope module restador_6bits_vlg_vec_tst $end
$var reg 6 ! ivA [5:0] $end
$var reg 6 " ivB [5:0] $end
$var wire 1 # ovS [6] $end
$var wire 1 $ ovS [5] $end
$var wire 1 % ovS [4] $end
$var wire 1 & ovS [3] $end
$var wire 1 ' ovS [2] $end
$var wire 1 ( ovS [1] $end
$var wire 1 ) ovS [0] $end
$var wire 1 * sampler $end
$scope module i1 $end
$var wire 1 + gnd $end
$var wire 1 , vcc $end
$var wire 1 - unknown $end
$var tri1 1 . devclrn $end
$var tri1 1 / devpor $end
$var tri1 1 0 devoe $end
$var wire 1 1 S1|S2|sum_1|sum_2|Cout~0_combout $end
$var wire 1 2 S1|S2|sum_2|sum_2|Cout~0_combout $end
$var wire 1 3 S1|S2|sum_2|sum_2|Cout~1_combout $end
$var wire 1 4 S1|S2|sum_2|sum_2|Cout~2_combout $end
$var wire 1 5 S1|S2|sum_2|sum_2|Cout~3_combout $end
$var wire 1 6 ovS~0_combout $end
$var wire 1 7 ivA~combout [5] $end
$var wire 1 8 ivA~combout [4] $end
$var wire 1 9 ivA~combout [3] $end
$var wire 1 : ivA~combout [2] $end
$var wire 1 ; ivA~combout [1] $end
$var wire 1 < ivA~combout [0] $end
$var wire 1 = ivB~combout [5] $end
$var wire 1 > ivB~combout [4] $end
$var wire 1 ? ivB~combout [3] $end
$var wire 1 @ ivB~combout [2] $end
$var wire 1 A ivB~combout [1] $end
$var wire 1 B ivB~combout [0] $end
$upscope $end
$upscope $end
$enddefinitions $end
#0
$dumpvars
b0 !
b0 "
0)
0(
0'
0&
0%
0$
1#
x*
0+
1,
x-
1.
1/
10
11
12
13
14
15
16
0<
0;
0:
09
08
07
0B
0A
0@
0?
0>
0=
$end
#10000
b1 "
1B
0*
06
01
02
1)
1(
1'
1&
1%
1$
03
04
05
16
0#
0)
0(
0'
0&
0%
0$
#20000
b11 "
b10 "
0B
1A
1*
06
1)
1(
1'
1&
1%
1$
#30000
b11 "
1B
0*
16
0)
0(
0'
0&
0%
0$
#40000
b111 "
b101 "
b100 "
0B
0A
1@
1*
06
11
1)
1(
1'
1&
1%
1$
#50000
b101 "
1B
0*
16
01
0)
0(
0'
0&
0%
0$
#60000
b111 "
b110 "
0B
1A
1*
06
1)
1(
1'
1&
1%
1$
#70000
b111 "
1B
0*
16
0)
0(
0'
0&
0%
0$
#80000
b1111 "
b1011 "
b1001 "
b1000 "
0B
0A
0@
1?
1*
06
11
12
1)
1(
1'
1&
1%
1$
#90000
b1001 "
1B
0*
16
01
02
0)
0(
0'
0&
0%
0$
#100000
b1011 "
b1010 "
0B
1A
1*
06
1)
1(
1'
1&
1%
1$
#110000
b1011 "
1B
0*
16
0)
0(
0'
0&
0%
0$
#120000
b1111 "
b1101 "
b1100 "
0B
0A
1@
1*
06
11
1)
1(
1'
1&
1%
1$
#130000
b1101 "
1B
0*
16
01
0)
0(
0'
0&
0%
0$
#140000
b1111 "
b1110 "
0B
1A
1*
06
1)
1(
1'
1&
1%
1$
#150000
b1111 "
1B
0*
16
0)
0(
0'
0&
0%
0$
#160000
b11111 "
b10111 "
b10011 "
b10001 "
b10000 "
0B
0A
0@
0?
1>
1*
06
11
12
1)
1(
1'
1&
1%
1$
13
#170000
b10001 "
1B
0*
16
01
02
0)
0(
0'
0&
0%
0$
03
#180000
b10011 "
b10010 "
0B
1A
1*
06
1)
1(
1'
1&
1%
1$
#190000
b10011 "
1B
0*
16
0)
0(
0'
0&
0%
0$
#200000
b10111 "
b10101 "
b10100 "
0B
0A
1@
1*
06
11
1)
1(
1'
1&
1%
1$
#210000
b10101 "
1B
0*
16
01
0)
0(
0'
0&
0%
0$
#220000
b10111 "
b10110 "
0B
1A
1*
06
1)
1(
1'
1&
1%
1$
#230000
b10111 "
1B
0*
16
0)
0(
0'
0&
0%
0$
#240000
b11111 "
b11011 "
b11001 "
b11000 "
0B
0A
0@
1?
1*
06
11
12
1)
1(
1'
1&
1%
1$
#250000
b11001 "
1B
0*
16
01
02
0)
0(
0'
0&
0%
0$
#260000
b11011 "
b11010 "
0B
1A
1*
06
1)
1(
1'
1&
1%
1$
#270000
b11011 "
1B
0*
16
0)
0(
0'
0&
0%
0$
#280000
b11111 "
b11101 "
b11100 "
0B
0A
1@
1*
06
11
1)
1(
1'
1&
1%
1$
#290000
b11101 "
1B
0*
16
01
0)
0(
0'
0&
0%
0$
#300000
b11111 "
b11110 "
0B
1A
1*
06
1)
1(
1'
1&
1%
1$
#310000
b11111 "
1B
0*
16
0)
0(
0'
0&
0%
0$
#320000
b111111 "
b101111 "
b100111 "
b100011 "
b100001 "
b100000 "
0B
0A
0@
0?
0>
1=
1*
06
11
12
1)
1(
1'
1&
1%
1$
13
14
#330000
b100001 "
1B
0*
16
01
02
0)
0(
0'
0&
0%
0$
03
04
#340000
b100011 "
b100010 "
0B
1A
1*
06
1)
1(
1'
1&
1%
1$
#350000
b100011 "
1B
0*
16
0)
0(
0'
0&
0%
0$
#360000
b100111 "
b100101 "
b100100 "
0B
0A
1@
1*
06
11
1)
1(
1'
1&
1%
1$
#370000
b100101 "
1B
0*
16
01
0)
0(
0'
0&
0%
0$
#380000
b100111 "
b100110 "
0B
1A
1*
06
1)
1(
1'
1&
1%
1$
#390000
b100111 "
1B
0*
16
0)
0(
0'
0&
0%
0$
#400000
b101111 "
b101011 "
b101001 "
b101000 "
0B
0A
0@
1?
1*
06
11
12
1)
1(
1'
1&
1%
1$
#410000
b101001 "
1B
0*
16
01
02
0)
0(
0'
0&
0%
0$
#420000
b101011 "
b101010 "
0B
1A
1*
06
1)
1(
1'
1&
1%
1$
#430000
b101011 "
1B
0*
16
0)
0(
0'
0&
0%
0$
#440000
b101111 "
b101101 "
b101100 "
0B
0A
1@
1*
06
11
1)
1(
1'
1&
1%
1$
#450000
b101101 "
1B
0*
16
01
0)
0(
0'
0&
0%
0$
#460000
b101111 "
b101110 "
0B
1A
1*
06
1)
1(
1'
1&
1%
1$
#470000
b101111 "
1B
0*
16
0)
0(
0'
0&
0%
0$
#480000
b111111 "
b110111 "
b110011 "
b110001 "
b110000 "
0B
0A
0@
0?
1>
1*
06
11
12
1)
1(
1'
1&
1%
1$
13
#490000
b110001 "
1B
0*
16
01
02
0)
0(
0'
0&
0%
0$
03
#500000
b110011 "
b110010 "
0B
1A
1*
06
1)
1(
1'
1&
1%
1$
#510000
b110011 "
1B
0*
16
0)
0(
0'
0&
0%
0$
#520000
b110111 "
b110101 "
b110100 "
0B
0A
1@
1*
06
11
1)
1(
1'
1&
1%
1$
#530000
b110101 "
1B
0*
16
01
0)
0(
0'
0&
0%
0$
#540000
b110111 "
b110110 "
0B
1A
1*
06
1)
1(
1'
1&
1%
1$
#550000
b110111 "
1B
0*
16
0)
0(
0'
0&
0%
0$
#560000
b111111 "
b111011 "
b111001 "
b111000 "
0B
0A
0@
1?
1*
06
11
12
1)
1(
1'
1&
1%
1$
#570000
b111001 "
1B
0*
16
01
02
0)
0(
0'
0&
0%
0$
#580000
b111011 "
b111010 "
0B
1A
1*
06
1)
1(
1'
1&
1%
1$
#590000
b111011 "
1B
0*
16
0)
0(
0'
0&
0%
0$
#600000
b111111 "
b111101 "
b111100 "
0B
0A
1@
1*
06
11
1)
1(
1'
1&
1%
1$
#610000
b111101 "
1B
0*
16
01
0)
0(
0'
0&
0%
0$
#620000
b111111 "
b111110 "
0B
1A
1*
06
1)
1(
1'
1&
1%
1$
#630000
b111111 "
1B
0*
16
0)
0(
0'
0&
0%
0$
#640000
b1 !
b11111 "
b1111 "
b111 "
b11 "
b1 "
b0 "
0B
0A
0@
0?
0>
0=
1<
1*
11
12
13
14
15
06
1#
1)
1(
1'
1&
1%
1$
#650000
b1 "
1B
0*
16
0)
0(
0'
0&
0%
0$
#660000
b11 "
b10 "
0B
1A
1*
06
01
02
1)
1(
1'
1&
1%
1$
03
04
05
16
0#
0)
0(
0'
0&
0%
0$
#670000
b11 "
1B
0*
06
1)
1(
1'
1&
1%
1$
#680000
b111 "
b101 "
b100 "
0B
0A
1@
1*
16
11
0)
0(
0'
0&
0%
0$
#690000
b101 "
1B
0*
06
1)
1(
1'
1&
1%
1$
#700000
b111 "
b110 "
0B
1A
1*
16
01
0)
0(
0'
0&
0%
0$
#710000
b111 "
1B
0*
06
1)
1(
1'
1&
1%
1$
#720000
b1111 "
b1011 "
b1001 "
b1000 "
0B
0A
0@
1?
1*
16
11
12
0)
0(
0'
0&
0%
0$
#730000
b1001 "
1B
0*
06
1)
1(
1'
1&
1%
1$
#740000
b1011 "
b1010 "
0B
1A
1*
16
01
02
0)
0(
0'
0&
0%
0$
#750000
b1011 "
1B
0*
06
1)
1(
1'
1&
1%
1$
#760000
b1111 "
b1101 "
b1100 "
0B
0A
1@
1*
16
11
0)
0(
0'
0&
0%
0$
#770000
b1101 "
1B
0*
06
1)
1(
1'
1&
1%
1$
#780000
b1111 "
b1110 "
0B
1A
1*
16
01
0)
0(
0'
0&
0%
0$
#790000
b1111 "
1B
0*
06
1)
1(
1'
1&
1%
1$
#800000
b11111 "
b10111 "
b10011 "
b10001 "
b10000 "
0B
0A
0@
0?
1>
1*
16
11
12
0)
0(
0'
0&
0%
0$
13
#810000
b10001 "
1B
0*
06
1)
1(
1'
1&
1%
1$
#820000
b10011 "
b10010 "
0B
1A
1*
16
01
02
0)
0(
0'
0&
0%
0$
03
#830000
b10011 "
1B
0*
06
1)
1(
1'
1&
1%
1$
#840000
b10111 "
b10101 "
b10100 "
0B
0A
1@
1*
16
11
0)
0(
0'
0&
0%
0$
#850000
b10101 "
1B
0*
06
1)
1(
1'
1&
1%
1$
#860000
b10111 "
b10110 "
0B
1A
1*
16
01
0)
0(
0'
0&
0%
0$
#870000
b10111 "
1B
0*
06
1)
1(
1'
1&
1%
1$
#880000
b11111 "
b11011 "
b11001 "
b11000 "
0B
0A
0@
1?
1*
16
11
12
0)
0(
0'
0&
0%
0$
#890000
b11001 "
1B
0*
06
1)
1(
1'
1&
1%
1$
#900000
b11011 "
b11010 "
0B
1A
1*
16
01
02
0)
0(
0'
0&
0%
0$
#910000
b11011 "
1B
0*
06
1)
1(
1'
1&
1%
1$
#920000
b11111 "
b11101 "
b11100 "
0B
0A
1@
1*
16
11
0)
0(
0'
0&
0%
0$
#930000
b11101 "
1B
0*
06
1)
1(
1'
1&
1%
1$
#940000
b11111 "
b11110 "
0B
1A
1*
16
01
0)
0(
0'
0&
0%
0$
#950000
b11111 "
1B
0*
06
1)
1(
1'
1&
1%
1$
#960000
b111111 "
b101111 "
b100111 "
b100011 "
b100001 "
b100000 "
0B
0A
0@
0?
0>
1=
1*
16
11
12
0)
0(
0'
0&
0%
0$
13
14
#970000
b100001 "
1B
0*
06
1)
1(
1'
1&
1%
1$
#980000
b100011 "
b100010 "
0B
1A
1*
16
01
02
0)
0(
0'
0&
0%
0$
03
04
#990000
b100011 "
1B
0*
06
1)
1(
1'
1&
1%
1$
