flipflops/t_flipflop/simulation/qsim/t_flipflop.msim.vcd
$comment
	File created using the following command:
		vcd file t_flipflop.msim.vcd -direction
$end
$date
	Wed Oct 25 20:45:59 2023
$end
$version
	ModelSim Version 10.1d
$end
$timescale
	1ps
$end
$scope module t_flipflop_vlg_vec_tst $end
$var reg 1 ! Clk $end
$var reg 1 " R $end
$var reg 1 # T $end
$var wire 1 $ nQ $end
$var wire 1 % Q $end
$var wire 1 & sampler $end
$scope module i1 $end
$var wire 1 ' gnd $end
$var wire 1 ( vcc $end
$var wire 1 ) unknown $end
$var tri1 1 * devclrn $end
$var tri1 1 + devpor $end
$var tri1 1 , devoe $end
$var wire 1 - Clk~combout $end
$var wire 1 . T~combout $end
$var wire 1 / tmp~0_combout $end
$var wire 1 0 R~combout $end
$var wire 1 1 tmp~regout $end
$upscope $end
$upscope $end
$enddefinitions $end
#0
$dumpvars
0!
x"
0#
1$
0%
x&
0'
1(
x)
1*
1+
1,
0-
0.
0/
x0
01
$end
#5000
1!
1-
0&
#10000
0!
0-
1&
#15000
1!
1-
0&
#20000
0!
0-
1&
#25000
1!
1-
0&
#30000
0!
0-
1&
#35000
1!
1-
0&
#40000
0!
0-
1&
#45000
1!
1-
0&
#50000
1#
0!
1.
0-
1&
1/
#55000
1!
1-
0&
11
0/
1%
0$
#60000
0!
0-
1&
#65000
1!
1-
0&
01
1/
0%
1$
#70000
0!
0-
1&
#75000
1!
1-
0&
11
0/
1%
0$
#80000
0!
0-
1&
#85000
1!
1-
0&
01
1/
0%
1$
#90000
0!
0-
1&
#95000
1!
1-
0&
11
0/
1%
0$
#100000
0#
0!
0.
0-
1&
1/
#105000
1!
1-
0&
#110000
0!
0-
1&
#115000
1!
1-
0&
#120000
0!
0-
1&
#125000
1!
1-
0&
#130000
0!
0-
1&
#135000
1!
1-
0&
#140000
0!
0-
1&
#145000
1!
1-
0&
#150000
1#
0!
1.
0-
1&
0/
#155000
1!
1-
0&
01
1/
0%
1$
#160000
0!
0-
1&
#165000
1!
1-
0&
11
0/
1%
0$
#170000
0!
0-
1&
#175000
1!
1-
0&
01
1/
0%
1$
#180000
0!
0-
1&
#185000
1!
1-
0&
11
0/
1%
0$
#190000
0!
0-
1&
#195000
1!
1-
0&
01
1/
0%
1$
#200000
0#
0!
0.
0-
1&
0/
#205000
1!
1-
0&
#210000
0!
0-
1&
#215000
1!
1-
0&
#220000
0!
0-
1&
#225000
1!
1-
0&
#230000
0!
0-
1&
#235000
1!
1-
0&
#240000
0!
0-
1&
#245000
1!
1-
0&
#250000
1#
0!
1.
0-
1&
1/
#255000
1!
1-
0&
11
0/
1%
0$
#260000
0!
0-
1&
#265000
1!
1-
0&
01
1/
0%
1$
#270000
0!
0-
1&
#275000
1!
1-
0&
11
0/
1%
0$
#280000
0!
0-
1&
#285000
1!
1-
0&
01
1/
0%
1$
#290000
0!
0-
1&
#295000
1!
1-
0&
11
0/
1%
0$
#300000
0#
0!
0.
0-
1&
1/
#305000
1!
1-
0&
#310000
0!
0-
1&
#315000
1!
1-
0&
#320000
0!
0-
1&
#325000
1!
1-
0&
#330000
0!
0-
1&
#335000
1!
1-
0&
#340000
0!
0-
1&
#345000
1!
1-
0&
#350000
1#
0!
1.
0-
1&
0/
#355000
1!
1-
0&
01
1/
0%
1$
#360000
0!
0-
1&
#365000
1!
1-
0&
11
0/
1%
0$
#370000
0!
0-
1&
#375000
1!
1-
0&
01
1/
0%
1$
#380000
0!
0-
1&
#385000
1!
1-
0&
11
0/
1%
0$
#390000
0!
0-
1&
#395000
1!
1-
0&
01
1/
0%
1$
#400000
0#
0!
0.
0-
1&
0/
#405000
1!
1-
0&
#410000
0!
0-
1&
#415000
1!
1-
0&
#420000
0!
0-
1&
#425000
1!
1-
0&
#430000
0!
0-
1&
#435000
1!
1-
0&
#440000
0!
0-
1&
#445000
1!
1-
0&
#450000
1#
0!
1.
0-
1&
1/
#455000
1!
1-
0&
11
0/
1%
0$
#460000
0!
0-
1&
#465000
1!
1-
0&
01
1/
0%
1$
#470000
0!
0-
1&
#475000
1!
1-
0&
11
0/
1%
0$
#480000
0!
0-
1&
#485000
1!
1-
0&
01
1/
0%
1$
#490000
0!
0-
1&
#495000
1!
1-
0&
11
0/
1%
0$
#500000
0#
0!
0.
0-
1&
1/
#505000
1!
1-
0&
#510000
0!
0-
1&
#515000
1!
1-
0&
#520000
0!
0-
1&
#525000
1!
1-
0&
#530000
0!
0-
1&
#535000
1!
1-
0&
#540000
0!
0-
1&
#545000
1!
1-
0&
#550000
1#
0!
1.
0-
1&
0/
#555000
1!
1-
0&
01
1/
0%
1$
#560000
0!
0-
1&
#565000
1!
1-
0&
11
0/
1%
0$
#570000
0!
0-
1&
#575000
1!
1-
0&
01
1/
0%
1$
#580000
0!
0-
1&
#585000
1!
1-
0&
11
0/
1%
0$
#590000
0!
0-
1&
#595000
1!
1-
0&
01
1/
0%
1$
#600000
0#
0!
0.
0-
1&
0/
#605000
1!
1-
0&
#610000
0!
0-
1&
#615000
1!
1-
0&
#620000
0!
0-
1&
#625000
1!
1-
0&
#630000
0!
0-
1&
#635000
1!
1-
0&
#640000
0!
0-
1&
#645000
1!
1-
0&
#650000
1#
0!
1.
0-
1&
1/
#655000
1!
1-
0&
11
0/
1%
0$
#660000
0!
0-
1&
#665000
1!
1-
0&
01
1/
0%
1$
#670000
0!
0-
1&
#675000
1!
1-
0&
11
0/
1%
0$
#680000
0!
0-
1&
#685000
1!
1-
0&
01
1/
0%
1$
#690000
0!
0-
1&
#695000
1!
1-
0&
11
0/
1%
0$
#700000
0#
0!
0.
0-
1&
1/
#705000
1!
1-
0&
#710000
0!
0-
1&
#715000
1!
1-
0&
#720000
0!
0-
1&
#725000
1!
1-
0&
#730000
0!
0-
1&
#735000
1!
1-
0&
#740000
0!
0-
1&
#745000
1!
1-
0&
#750000
1#
0!
1.
0-
1&
0/
#755000
1!
1-
0&
01
1/
0%
1$
#760000
0!
0-
1&
#765000
1!
1-
0&
11
0/
1%
0$
#770000
0!
0-
1&
#775000
1!
1-
0&
01
1/
0%
1$
#780000
0!
0-
1&
#785000
1!
1-
0&
11
0/
1%
0$
#790000
0!
0-
1&
#795000
1!
1-
0&
01
1/
0%
1$
#800000
0#
0!
0.
0-
1&
0/
#805000
1!
1-
0&
#810000
0!
0-
1&
#815000
1!
1-
0&
#820000
0!
0-
1&
#825000
1!
1-
0&
#830000
0!
0-
1&
#835000
1!
1-
0&
#840000
0!
0-
1&
#845000
1!
1-
0&
#850000
1#
0!
1.
0-
1&
1/
#855000
1!
1-
0&
11
0/
1%
0$
#860000
0!
0-
1&
#865000
1!
1-
0&
01
1/
0%
1$
#870000
0!
0-
1&
#875000
1!
1-
0&
11
0/
1%
0$
#880000
0!
0-
1&
#885000
1!
1-
0&
01
1/
0%
1$
#890000
0!
0-
1&
#895000
1!
1-
0&
11
0/
1%
0$
#900000
0#
0!
0.
0-
1&
1/
#905000
1!
1-
0&
#910000
0!
0-
1&
#915000
1!
1-
0&
#920000
0!
0-
1&
#925000
1!
1-
0&
#930000
0!
0-
1&
#935000
1!
1-
0&
#940000
0!
0-
1&
#945000
1!
1-
0&
#950000
1#
0!
1.
0-
1&
0/
#955000
1!
1-
0&
01
1/
0%
1$
#960000
0!
0-
1&
#965000
1!
1-
0&
11
0/
1%
0$
#970000
0!
0-
1&
#975000
1!
1-
0&
01
1/
0%
1$
#980000
0!
0-
1&
#985000
1!
1-
0&
11
0/
1%
0$
#990000
0!
0-
1&
#995000
1!
1-
0&
01
1/
0%
1$
